<!-- Generated by IcoMoon.io -->
<svg version="1.1" xmlns="http://www.w3.org/2000/svg" width="6048" height="1024" viewBox="0 0 6048 1024">
    <title></title>
    <g id="icomoon-ignore">
    </g>
    <path fill="#ffffff" d="M1660.176 373.988q-1.087-7.607-2.173-12.497t-4.347-8.694-8.694-5.977-15.214-5.434q-14.127-2.173-23.908-4.347t-17.387-3.26-15.214-1.63-16.301 0.543q-55.422-1.087-95.631 21.191t-66.289 55.422-39.122 74.44-13.041 78.243q0 35.862 11.954 76.070t36.948 76.070 63.573 58.682 91.827 23.908q20.648-1.087 38.578-4.347t30.971-8.694 21.734-9.78 11.954-7.607q4.347-2.173 6.52-5.977t3.803-5.977 2.173-5.977 0.543-7.064l4.347-63.029v-2.717t-1.087-3.803l-2.717-2.717t-4.89-0.543q-2.173-1.087-3.803 1.087t-3.26 3.803-2.717 4.347l-1.087 2.717q-8.694 22.821-17.931 39.665t-21.191 30.428-26.624 20.104-34.231 7.607q-31.515-1.087-55.966-20.104t-40.752-51.075-24.994-70.093-8.694-77.157q0-33.688 8.15-71.723t24.994-67.92 41.838-49.989 59.769-19.017q19.561-1.087 33.688 5.434t24.451 15.757 18.474 23.364 15.757 28.255q2.173 5.434 3.803 7.064t3.26 3.803 3.26 2.173 2.717 1.087q3.26-1.087 4.347-1.63t1.63-2.717 1.087-3.803 0.543-5.977l-5.434-49.989zM1801.449 373.988q0-7.607-2.717-15.214t-6.52-13.041-9.78-8.694-12.497-2.173q-6.52-1.087-12.497 2.717t-9.78 8.694-5.977 12.497-2.173 14.127q0 9.78 2.173 16.301t6.52 12.497 9.78 8.15 11.954 3.26q7.607-1.087 13.041-3.803t9.78-8.694 6.52-11.954 2.173-14.671v0zM1743.853 718.475q0 14.127-0.543 24.451t-2.717 15.214-7.064 8.15-13.584 4.347q-5.434 1.087-8.694 1.63t-4.89 2.717-2.717 3.26-1.087 4.347 1.087 5.434 2.717 2.717l3.26 1.087t2.717-0.543q3.26 1.087 9.78 0t14.127-1.087 16.844-1.087 17.931 0q9.78-1.087 19.017 0t16.844 1.087 13.584 1.087 9.237 0q1.087 1.087 2.717 0.543l3.26-1.087t2.173-2.717 0.543-4.347q0-3.26-0.543-4.89t-2.173-3.803-4.89-2.717-8.694-1.63q-8.694-1.087-13.584-4.347t-7.607-8.694-2.717-15.214v-270.591t-0.543-8.15-2.173-4.89-3.803-1.087q-1.087-1.087-4.89 2.717t-8.15 7.064-7.607 7.607-5.434 5.434q-3.26 4.347-7.607 7.064t-10.324 7.064-13.584 7.607-17.387 8.694q-2.173 0-3.803 1.63l-2.717 2.717t-1.63 3.26-0.543 3.26q0 4.347 1.087 5.434t3.26 2.717 3.803 1.087 2.717 0.543q7.607 0 12.497 2.717t7.607 8.15 3.803 14.671 1.087 22.278v139.099zM1931.854 510.913v-8.15t1.087-4.89 3.26-2.173 5.434 0q10.867-1.087 18.474 0t13.041 0.543 9.78 0 8.694-0.543q2.173 1.087 3.803 0l3.26-2.173t2.173-4.347 0.543-7.607v-7.607t-1.087-4.347-2.717-2.173-3.803-1.087q-1.087 1.087-3.26 0.543t-3.803 0.543-3.803 0.543-5.434 0.543l-32.601-1.087q-4.347 1.087-7.064 0t-3.803-2.173-1.63-4.89-0.543-8.15v-51.075q0-3.26-1.087-5.977t-2.173-3.26-2.717-1.087-1.63 0.543q-1.087-1.087-2.717 0t-2.717 2.173-2.173 2.717-2.173 2.717q-6.52 15.214-13.041 24.994t-13.041 18.474-11.954 13.584-10.867 9.237l-15.214 8.694q-1.087 2.173-2.173 2.717t-2.717 2.717-2.717 3.803-1.087 4.89q0 2.173 1.087 4.347t2.717 2.173 3.26 1.087 2.717 0q2.173 1.087 3.26 0.543t2.717-0.543 3.26-0.543 3.803 0.543q3.26-1.087 5.434 0t3.803 2.173 2.717 4.347 1.087 5.434v209.735q0 19.561 4.347 34.775t12.497 24.451 18.474 14.671 21.191 4.347q15.214 1.087 28.798-6.52t24.451-16.301 16.844-18.474 5.977-13.041v-2.717t-0.543-2.173-1.63-1.63-2.173-1.087q0 1.087-1.087 1.087t-1.63 0.543-1.63 0.543-1.087 2.173q-7.607 4.347-13.041 8.694t-9.78 5.977-7.607 2.717-5.434 0q-10.867 1.087-17.387-5.434t-10.324-15.214-4.347-21.191-0.543-23.364v-179.308zM2116.595 530.474q0-2.173-1.087-4.347t-1.63-6.52-1.087-7.607-0.543-7.607q0-3.26 1.087-7.064t3.26-5.434l4.347-3.26t5.434-0.543q7.607-2.173 12.497-2.717t7.064-2.173 2.717-2.717 0.543-6.52q0-1.087-0.543-3.803t-1.63-3.26-3.26-1.087-4.347 0.543q-3.26-1.087-7.064-0.543t-9.237 0.543-12.497 1.087-16.844 0q-17.387 1.087-29.885 0t-20.648-1.087-13.041-0.543-7.064 0.543q-2.173-1.087-4.89-0.543t-4.89 1.087-3.803 2.717-1.63 4.347q0 4.347 1.087 5.977t2.717 3.26 2.717 1.087 2.173 0.543q8.694 0 14.127 2.173t9.237 5.434 7.607 12.497 8.15 24.451l72.81 231.47 1.63 5.977t2.717 11.41 2.173 11.41l1.087 5.977q0 3.26-0.543 4.89t-1.087 4.89-1.087 5.434-1.63 5.434l-14.127 40.208q-3.26 10.867-6.52 15.214t-5.977 7.607-5.977 3.26-6.52 1.087l-15.214-2.173q-7.607 1.087-12.497 3.803t-7.064 8.15-3.26 10.867-1.087 13.041q0 2.173 0.543 8.15t3.26 10.324 9.237 8.15 17.387 2.717q10.867 1.087 17.387-1.63t10.324-7.064 6.52-13.041 4.89-18.474q4.347-17.387 10.867-39.665t13.584-47.272 14.671-48.359 13.041-42.925q8.694-28.255 16.844-53.249t16.301-47.272 16.844-45.099 17.387-44.555q4.347-14.127 8.15-22.821t7.064-15.757 7.064-9.78 9.237-4.89q6.52 0 10.324-1.087t5.977-1.63 3.26-3.26 1.087-3.803q0-4.347-1.087-5.977t-2.717-2.717-2.717-0.543-2.173-0.543q-1.087 1.087-5.434 0.543t-9.78 0.543-12.497 1.087-15.757 1.087q-7.607-1.087-14.671-1.087t-12.497-1.087-10.324-0.543-7.064-0.543q-1.087 1.087-2.717 0.543t-3.26 1.087-3.26 2.717-1.63 5.434q0 3.26 1.087 5.434t3.803 2.717 6.52 1.087 8.15 0.543q5.434 1.087 9.237 2.173t6.52 4.347 3.803 6.52 1.087 9.78q0 1.087-0.543 5.434t-1.63 8.694-2.173 10.324-3.26 10.324l-49.989 155.4-53.249-169.527v2.173zM2818.611 513.087q0-5.434 0.543-8.694t2.173-5.434 3.803-2.717l6.52-1.63q10.867 1.087 18.474 0.543t13.041 0.543 9.78 0.543 8.694 0.543q2.173-1.087 3.803-0.543t2.717-1.087 1.63-2.717 0.543-5.434q0-5.434-0.543-9.78t-1.63-6.52-2.717-3.26-3.803 0q-1.087-1.087-3.26-0.543t-4.89 0.543-6.52 0.543-9.237-0.543l-28.255 1.087q-3.26-1.087-5.434-1.087t-3.803-2.717-2.173-5.977-0.543-9.78q0-8.694 1.087-28.798t4.347-38.578 10.324-33.145 20.104-13.584q3.26-1.087 6.52 1.087t7.064 5.434 7.607 10.867 10.324 17.387q1.087 2.173 2.717 4.347t3.803 4.89 4.89 3.803 5.977 2.173q3.26-1.087 7.607-5.977t7.607-12.497 5.977-14.127 2.717-11.954q0-9.78-6.52-16.301t-14.671-9.237-15.757-3.803-10.867 0q-13.041-2.173-30.971 5.434t-34.231 22.278-28.798 39.122-16.844 55.966q-1.087 14.127-2.173 20.104t-2.717 10.324-4.347 5.434-7.064 3.26q-5.434 0-9.78 2.173l-6.52 3.26t-3.803 4.347-1.63 5.434q0 4.347 1.087 5.434l2.173 2.173t2.173 1.087 3.26 1.087q1.087-1.087 3.26-0.543t4.347-0.543 3.803-0.543 1.63-0.543q4.347 1.087 6.52 1.087t3.803 3.26 2.173 8.15 0.543 14.671v193.435q0 13.041-0.543 21.734t-3.26 15.757-8.15 10.324-16.301 5.434q-4.347-1.087-8.15 0t-6.52 1.63-3.803 3.803-1.087 5.434q0 5.434 1.087 7.064t2.717 3.26 3.803 1.087 4.347 0.543q1.087-1.087 5.977-1.087t12.497-1.087 19.017-1.087 25.538-1.087q14.127 1.087 25.538 1.087t19.017 1.087 12.497 1.087 7.064 1.087q1.087-1.087 3.26-0.543t3.803-1.087 2.717-3.26 1.087-5.977q0-3.26-1.087-5.977t-3.803-3.803-5.977-2.173-8.694 0q-9.78-2.173-15.757-5.434t-8.694-10.324-3.26-15.757-0.543-21.734v-203.215zM3364.141 529.387q-1.087-3.26-2.173-5.977t-1.63-4.347-0.543-3.26v-6.52t0.543-2.717 0.543-3.26l38.035-94.544q6.52-17.387 11.41-27.168t8.694-15.214 8.15-5.977 10.867-2.717q5.434 1.087 8.694-0.543t5.977-2.173 3.803-3.26 1.087-4.89q0-5.434-1.087-6.52l-2.717-2.717t-3.803-1.087-4.347-0.543q-2.173 1.087-5.434 0.543t-7.607 0.543-8.694 1.087-9.78 1.087q-5.434-1.087-12.497-1.087t-13.584-1.087-11.954-0.543-7.607-0.543q-2.173 1.087-3.803 0.543t-2.717 1.087-2.173 2.717-1.087 5.434q0 1.087 0.543 3.26t1.63 3.26 3.26 2.173 3.26 0q5.434 2.173 8.694 3.26t5.434 3.26 3.803 4.347 1.63 6.52q0 1.087-1.087 4.347t-1.63 5.977-1.63 6.52-2.173 5.977l-32.601 91.284-33.688-95.631q-1.087-2.173-2.173-6.52t-1.63-7.064-1.087-6.52l-0.543-3.803q0-3.26 0.543-4.347t2.173-2.717 4.347-1.63 4.89-1.087q2.173 1.087 5.434 0t6.52-1.63 5.977-3.26 2.717-5.977q0-4.347-1.087-5.434l-2.717-2.717t-3.26-1.087-1.63-0.543q-3.26 1.087-11.41 0.543t-16.844 0.543-16.301 1.087-9.78 1.087q-4.347-1.087-12.497-1.087t-17.931-1.087-17.931-0.543-11.41-0.543q-2.173 1.087-3.803 0.543t-3.803 1.087-3.26 2.717-1.087 6.52q0 2.173 1.087 4.89t3.803 3.26 6.52 1.63 9.237 1.087q3.26 2.173 6.52 3.803t5.977 7.607 5.977 13.584 7.607 20.648l54.336 154.313q1.087 3.26 1.63 4.347t1.087 3.26 0.543 2.717v3.803t-0.543 1.63-1.087 2.717l-0.543 2.173-43.468 110.845-104.324-297.759-1.087-3.26t-1.63-5.977-1.63-7.064-1.087-6.52q0-4.347 1.63-5.977t3.803-3.26 4.347-1.63 3.26-1.087q3.26 1.087 6.52 0t5.434-1.63 3.803-3.26 1.63-4.89q0-4.347-1.63-5.977t-3.803-3.26-4.347-1.087-4.347-0.543q-2.173 1.087-8.15 1.087t-14.127 1.087-17.931 0.543-18.474 0.543q-8.694-1.087-16.844-0.543t-15.214-0.543-13.584-1.087-9.78-1.087q-2.173 1.087-4.347 0.543t-3.803 1.087l-3.26 3.26t-1.63 5.977q0 2.173 1.087 4.347t3.26 3.26 5.977 2.173 10.324 1.087q4.347 2.173 8.15 3.26t7.064 5.977 7.064 12.497 8.15 21.734l133.666 382.523q1.087 5.434 2.717 8.15t3.26 5.977 3.26 3.803 3.803 1.63q1.087-1.087 2.717-1.087t3.26-3.26l3.26-6.52t3.803-10.867l67.376-183.654 59.769 185.828 3.26 9.78t2.717 5.977 3.26 2.717 3.803 1.087q1.087-1.087 2.717-1.087t2.717-2.717 2.173-4.89 2.173-6.52l119.538-365.135q7.607-23.908 12.497-35.862t9.237-18.474 8.694-7.607 8.694-3.26q5.434 1.087 9.237-0.543t6.52-2.173 3.803-3.26 1.087-4.89q0-4.347-1.087-5.977t-2.717-3.26-3.26-1.087-2.717-0.543q-2.173 1.087-5.434 1.087t-8.15 1.087-10.867 0.543-13.584 0.543q-5.434-1.087-11.954-0.543t-11.954-0.543-10.324-1.087-7.064-1.087q-3.26 1.087-5.434 0.543t-4.347 1.087-3.26 2.717-1.087 5.434q0 2.173 0.543 4.89t1.63 3.26 2.717 1.63 2.717 0q7.607 3.26 11.954 3.803t7.607 2.717 4.347 4.347 1.087 7.607q0 2.173-1.087 8.15t-2.717 10.867-3.26 11.41-2.717 8.694l-89.11 270.591-51.075-154.313zM3757.531 573.943q3.26-1.087 5.977-1.087t4.347-1.63 2.717-3.803 1.087-7.607q0-8.694-3.803-26.624t-15.214-35.318-31.515-30.428-51.619-11.954q-28.255-1.087-53.792 11.954t-44.012 35.318-29.885 55.966-11.41 72.81 10.324 69.006 27.711 51.619 41.295 32.601 51.075 11.954q27.168-1.087 47.272-10.867t34.231-23.364 21.191-24.994 7.064-16.844v-1.63t-0.543-2.173l-1.63-1.63t-2.173 0q-1.087-1.087-2.173 0t-2.173 1.63-3.26 3.26-4.347 5.977q-5.434 7.607-11.954 11.954t-14.671 9.237-17.387 6.52-17.931 2.717q-21.734-1.087-40.208-11.954t-31.515-30.428-20.104-45.642-7.064-57.596q0-13.041 0.543-21.191t2.717-11.41 4.89-4.347 5.977 0l149.966-1.087v1.087zM3615.172 551.122q-4.347-1.087-7.607-0.543t-4.89-1.087-2.173-2.717-0.543-4.347q0-4.347 3.803-16.301t11.41-23.908 20.648-21.734 32.601-8.694q3.26-1.087 10.867 0.543t15.214 5.434 13.584 13.041 5.977 24.451q0 7.607-2.173 13.584t-7.064 11.41-11.954 7.607-16.844 3.26l-60.856-1.087v1.087zM3804.259 748.903v10.324t0.543 7.607 2.173 5.434 3.803 2.717q1.087 2.173 7.607 4.89t16.301 7.064 22.278 6.52 24.451 3.26q28.255-1.087 48.359-11.41t33.688-27.711 20.104-37.492 6.52-41.838-8.15-39.122-18.474-28.255-21.734-18.474-17.931-10.867q-21.734-13.041-34.775-20.104t-20.648-14.127-10.867-14.127-3.26-19.017q0-8.694 3.803-17.387t9.78-13.584 14.127-8.694 17.931-2.717q14.127-1.087 23.908 5.434t16.301 14.671 10.324 17.387 4.89 13.584q1.087 6.52 2.717 8.694t2.717 4.347 2.173 2.173 2.173 1.087q2.173-1.087 3.803-1.63t2.173-3.26 1.087-4.347 0.543-3.803l2.173-41.295q0-5.434-0.543-8.694t-1.63-6.52-3.803-4.347l-8.15-3.26q-2.173 1.087-9.237-0.543t-16.301-2.717-17.387-2.717-11.41-0.543q-28.255-1.087-47.272 8.694t-30.428 24.451-16.844 32.601-5.434 32.058q0 20.648 7.064 34.231t17.387 24.451 23.364 17.931 24.994 14.671q14.127 5.434 26.081 13.584t20.648 15.757 13.041 19.017 4.347 24.451q0 15.214-4.89 26.081t-12.497 19.017-17.387 11.41-19.561 4.347q-16.301-1.087-28.255-10.324t-19.561-22.821-11.41-26.081-4.89-17.931l-2.173-8.694t-2.173-5.977-3.26-3.803-4.347-1.087q-2.173-1.087-3.803 1.087t-2.173 4.347-1.087 4.89-0.543 1.63l-1.087 55.422zM4100.932 510.913q0-4.347 0.543-8.15t1.63-4.89 3.26-2.173 5.434 0q9.78-1.087 17.387 0t13.584 0.543 10.324 0 7.607-0.543q3.26 1.087 4.89 0t2.717-2.173 1.63-4.347 0.543-7.607q1.087-5.434 0.543-7.607t-1.63-4.347-2.717-2.173-2.717-1.087q-2.173 1.087-3.803 0.543t-3.803 0.543-4.347 0.543-5.434 0.543l-31.515-1.087q-4.347 1.087-7.064 0t-4.347-2.173-2.173-4.89-0.543-8.15v-51.075q0-3.26-1.087-5.977t-2.173-3.26l-2.173-1.087t-2.173 0.543q-1.087-1.087-2.173 0t-2.717 2.173-2.717 2.717-1.087 2.717q-7.607 15.214-14.127 24.994t-13.041 18.474-11.954 13.584-10.867 9.237l-15.214 8.694q0 2.173-1.63 2.717t-3.26 2.717-2.173 3.803-0.543 4.89q0 2.173 1.087 4.347t2.173 2.173 2.717 1.087 2.717 0q2.173 1.087 3.803 0.543t3.26-0.543 3.26-0.543 2.717 0.543q3.26-1.087 5.977 0t4.347 2.173 2.173 4.347 0.543 5.434v209.735q0 19.561 4.89 34.775t12.497 24.451 17.931 14.671 21.191 4.347q15.214 1.087 29.341-6.52t24.451-16.301 16.844-18.474 6.52-13.041q0-2.173-0.543-2.717t-1.087-2.173-1.087-1.63-1.63-1.087q-1.087 1.087-2.173 1.087t-1.63 0.543-1.63 0.543-1.087 2.173q-7.607 4.347-13.041 8.694t-9.237 5.977-7.064 2.717-6.52 0q-10.867 1.087-17.387-5.434t-9.78-15.214-4.347-21.191-1.087-23.364v-179.308zM4556.264 717.389v24.451t-2.173 15.757-7.064 8.694-13.584 4.347q-4.347 1.087-7.607 1.63t-5.434 2.717-2.717 3.26-0.543 4.347 0.543 5.434 2.173 2.717l3.26 1.087t2.717-0.543q3.26 1.087 8.694 0t11.954-1.087 16.301-1.087 21.734 0q10.867-1.087 19.561 0t16.301 1.087 12.497 1.087 8.15 0q1.087 1.087 3.26 0.543t3.26-1.087 2.173-2.717 1.087-4.347q0-3.26-0.543-4.89t-2.717-3.803-5.434-2.717-8.694-1.63q-8.694-1.087-13.041-4.347t-6.52-8.694-2.717-15.757-0.543-24.451v-174.961q0-7.607-2.173-23.364t-9.78-29.341-23.364-24.451-42.925-9.78q-7.607-1.087-15.214 1.087t-15.757 5.977-15.757 10.867-16.301 14.671q-1.087 2.173-3.803 4.89t-5.977 7.064-5.977 6.52-3.803 3.26q-1.087-1.087-1.63-0.543t-1.63-2.173-3.26-5.434-4.347-10.324q-6.52-11.954-15.757-20.104t-18.474-11.41-16.301-4.347-9.237 0q-9.78-1.087-18.474 0.543t-17.931 5.977-19.017 14.127-21.734 24.994q-1.087 3.26-2.173 3.803t-2.173 2.173-1.63 1.63-1.63 1.087l-1.087-1.087-0.543-1.63t-0.543-4.347v-47.815t-1.087-4.347-2.173-3.26l-3.26-1.63q-1.087 1.087-2.717 1.63t-3.26 3.26-3.26 4.347-2.717 4.89q-6.52 8.694-15.757 17.931t-17.931 14.671-15.214 9.78-7.607 4.347q-3.26 2.173-4.89 2.173t-2.173 1.63-1.087 2.717-0.543 3.26q0 3.26 1.087 5.434t3.26 2.717 4.89 1.63 5.977 0q6.52 1.087 9.78 3.803t4.89 9.78 2.173 16.301 0.543 22.278v139.099q0 16.301-0.543 24.994t-2.717 15.214-7.064 8.694-13.584 5.434q-5.434-1.087-8.694 0.543l-5.434 2.717t-2.717 3.26-0.543 3.26q0 5.434 1.087 6.52t2.173 2.717 3.26 1.087 3.26 0.543q4.347-1.087 9.78-1.087t13.041-1.087 16.844-1.087 17.931-1.087q10.867 1.087 20.104 1.087t16.301 1.087 12.497 1.087 7.607 1.087q2.173-1.087 4.347-0.543t3.26-1.087 2.173-2.717 1.087-5.434q0-1.087-0.543-3.803t-2.173-3.803-4.89-2.717-8.694-0.543q-8.694-3.26-13.584-5.434t-7.064-8.694-2.173-15.757v-191.261t1.087-10.867 2.717-9.78 4.89-8.15q4.347-4.347 8.694-9.78t9.78-8.15 13.041-4.89 16.301-1.087q15.214-1.087 23.908 6.52t14.127 17.931 7.064 24.994 1.63 27.711v142.359q0 14.127-0.543 24.451t-2.717 15.757-6.52 8.694-13.041 4.347q-5.434 1.087-8.694 1.63t-4.89 2.717-2.717 3.26-1.087 4.347 1.087 5.434 2.173 2.717 3.26 1.087 3.26-0.543q3.26 1.087 8.694 0t12.497-1.087 16.301-1.087 20.104 0q11.954-1.087 20.648 0t15.757 1.087 12.497 1.087 8.694 0q1.087 1.087 2.717 0.543l3.26-1.087t2.173-2.717 0.543-4.347q0-3.26-0.543-4.89t-2.173-3.803-4.89-2.717-8.694-1.63q-8.694-1.087-13.041-4.347t-6.52-8.694-2.717-15.757-0.543-24.451v-167.897t1.087-10.867 2.717-10.324 4.89-8.694q2.173-4.347 6.52-8.15t10.324-8.15 13.584-6.52 17.387-3.26q17.387 1.087 27.168 8.694t14.127 19.561 4.89 23.364 0.543 20.104v152.14zM4773.607 375.074q0-9.78-2.173-16.301t-6.52-13.041-9.78-8.694-11.954-3.26q-6.52 1.087-12.497 3.803t-9.78 8.694-6.52 12.497-2.717 15.214q0 7.607 2.717 15.214t6.52 12.497 9.78 8.15 12.497 2.173q7.607 1.087 13.041-2.717t9.237-8.694 5.977-11.954 2.173-13.584v0zM4716.011 717.389v25.538t-2.173 15.214-7.064 8.15-14.671 5.434q-4.347-1.087-7.607 0.543l-5.434 2.717t-2.717 3.26-0.543 3.26q0 5.434 0.543 6.52t2.173 2.717 3.26 1.087 2.717 0.543q4.347-1.087 10.324-1.087t14.127-1.087 16.844-1.087 18.474-1.087q9.78 1.087 18.474 1.087t16.301 1.087 13.584 1.087 9.237 1.087q1.087-1.087 2.717-0.543t3.26-1.087l2.717-2.717t1.087-5.434q0-1.087-0.543-3.803t-2.717-3.803l-5.434-2.717t-8.694-0.543q-8.694-3.26-13.584-5.434t-7.064-8.694-2.717-15.214-0.543-24.994v-245.597t-0.543-8.15-1.63-4.89-3.26-2.173q-2.173 1.087-5.977 3.803t-7.607 7.064-7.607 7.607-4.89 6.52q-3.26 2.173-7.607 5.977t-10.324 7.064-13.584 7.607-17.387 7.607q-3.26 2.173-4.89 2.717t-2.717 2.717l-1.63 3.26t-0.543 4.347q0 2.173 1.63 4.347t3.26 2.717 3.803 1.087 2.173-0.543q7.607 2.173 12.497 3.803t7.607 8.15 3.803 14.671 1.087 23.364v136.926zM5042.025 718.475v24.451t-2.717 15.214-7.607 8.15-13.584 4.347q-4.347 1.087-7.607 1.63t-5.434 2.717-2.717 3.26-0.543 4.347 0.543 5.434 2.173 2.717l3.26 1.087t2.717-0.543q4.347 1.087 12.497 0t17.387-1.087 17.931-1.087 10.867 0q4.347-1.087 12.497 0t17.387 1.087 17.387 1.087 11.41 0q1.087 1.087 2.717 0.543l3.26-1.087t2.717-2.717 1.087-4.347q0-3.26-1.087-4.89t-2.717-3.803-4.89-2.717-8.694-1.63q-8.694-1.087-13.584-4.347t-7.064-8.694-2.717-15.757-0.543-24.451v-169.527q0-23.908-7.064-42.382t-17.931-29.341-24.451-16.301-27.711-4.347q-11.954-1.087-21.191 1.087t-18.474 7.607-19.561 15.757-23.364 24.451q0 2.173-1.087 2.717t-2.173 1.63-2.173 0.543-2.173 0.543q-1.087-1.087-1.63-1.087t-0.543-1.63v-52.162t-1.087-4.347-2.173-3.26l-3.26-1.63q-1.087 1.087-2.717 1.63t-3.26 3.26-3.26 4.347-2.717 4.89q-6.52 8.694-15.757 17.931t-17.931 14.671-15.214 9.78-8.694 4.347q-2.173 2.173-3.26 2.173t-2.173 1.63-1.63 2.717-0.543 3.26q0 3.26 1.087 5.434t3.26 2.717 4.89 1.63 5.977 0q6.52 1.087 9.78 3.803t4.89 9.78 2.173 16.301 0.543 22.278v139.099q0 16.301-0.543 24.994t-2.717 15.214-7.064 8.694-14.671 5.434q-4.347-1.087-7.607 0.543t-4.89 2.717-2.717 3.26-1.087 3.26q0 5.434 1.087 6.52t2.173 2.717 3.26 1.087 3.26 0.543q3.26-1.087 11.41-1.087t17.387-1.087 17.387-1.087 11.41-1.087q4.347 1.087 13.041 1.087t17.931 1.087 17.387 1.087 10.324 1.087q2.173-1.087 3.803-0.543t2.717-1.087 2.173-2.717 1.087-5.434q0-1.087-0.543-3.803t-2.173-3.803-4.89-2.717-8.694-0.543q-9.78-3.26-14.671-5.434t-7.064-8.694-2.173-15.757v-191.261t1.63-10.324 3.26-9.78 4.89-8.694l10.867-10.867t11.41-7.607 12.497-4.347 13.041-1.087q20.648-1.087 31.515 8.694t16.301 22.278 5.977 28.798 0.543 28.255v132.579zM5180.037 747.817v11.41t0.543 7.607 1.63 5.434 4.347 3.803l6.52 3.803t16.301 7.064 22.278 6.52 25.538 2.173q27.168 1.087 47.815-10.324t33.688-27.711 19.561-37.492 6.52-40.752q0-23.908-7.607-40.208t-17.931-28.255-21.734-18.474-19.017-11.954q-20.648-10.867-34.231-19.017t-21.191-14.127-10.324-14.127-2.717-17.931q0-10.867 3.803-18.474t9.78-13.584 14.127-8.694 16.844-3.803q14.127 1.087 24.451 6.52t16.844 14.671 10.324 17.387 4.89 14.671q1.087 4.347 2.173 7.607t2.173 4.347 2.717 2.173 2.717 0q2.173 1.087 3.26-0.543l2.173-3.26t1.087-4.347v-2.717l2.173-43.468v-7.607t-1.63-6.52-4.347-4.347-8.15-2.173q-1.087-1.087-8.694-1.63t-16.844-2.717-17.387-2.717-11.41-1.63q-27.168 1.087-46.185 9.78t-30.971 24.451-16.844 32.601-4.89 33.145q0 18.474 6.52 33.145t16.844 24.451 23.364 17.931 26.081 13.584q14.127 7.607 26.081 14.671t20.104 15.757 13.041 19.017 4.89 25.538q0 13.041-4.89 24.994t-13.041 19.017-17.387 11.41-19.017 3.26q-17.387 1.087-28.798-9.237t-19.017-22.821-11.41-26.081-4.89-16.844q-1.087-6.52-2.173-9.78t-2.717-5.977-3.26-3.803-3.803-2.173q-3.26 1.087-4.89 2.173t-2.173 4.347-0.543 4.89v2.717l-1.087 53.249zM5491.924 512q0-6.52 0.543-9.237t1.63-4.89 3.26-2.173 5.434-1.087q9.78 1.087 17.387 1.087t13.584 0.543 10.324 0 7.607 0.543q3.26-1.087 4.89-1.087t2.717-2.173 1.63-4.347 1.63-8.694q0-3.26-0.543-6.52t-1.63-4.347l-2.173-2.173t-3.26 0q-2.173-1.087-3.803-0.543t-3.803 0.543-4.347 0.543-4.347-0.543l-32.601 1.087q-4.347-1.087-7.064-1.087t-4.347-2.173-2.173-4.89-0.543-9.237v-48.902q0-5.434-0.543-7.064t-2.173-3.26-2.717-1.087-1.087-0.543q-2.173 1.087-3.26 1.087t-2.717 2.173-2.173 2.717-1.63 3.803q-7.607 13.041-14.127 23.908t-12.497 18.474-11.954 13.584-11.41 8.15l-14.127 10.867q-1.087 0-2.717 1.63l-2.717 2.717t-2.173 3.803-1.087 3.803q0 4.347 1.087 5.434t2.717 2.173 3.26 1.087 2.717 1.087q1.087-1.087 2.717-0.543t3.26-0.543 3.26-0.543 2.717-0.543q3.26 1.087 5.977 1.087t4.347 2.173 2.173 4.347 0.543 6.52v207.562q0 21.734 4.89 35.862t13.041 24.451 17.931 14.671 20.648 5.434q15.214-1.087 29.341-7.607t24.451-16.301 16.844-18.474 6.52-14.127l-0.543-1.63t-1.087-2.173-1.087-1.63-1.63 0q-1.087-1.087-1.63 0t-1.63 0.543-1.63 0.543-1.63 1.087q-7.607 6.52-12.497 9.78t-9.237 5.977-7.607 2.717-6.52 1.087q-10.867-1.087-17.387-6.52t-9.78-15.214-4.347-21.191-1.087-24.451v-177.134zM5805.984 572.856q3.26 1.087 5.977 0t4.89-1.63 3.26-3.803 1.087-6.52q0-10.867-4.347-27.711t-15.757-35.318-30.971-30.428-51.075-13.041q-29.341 1.087-54.336 13.041t-44.012 35.318-29.885 55.966-10.867 73.896q0 36.948 9.78 67.92t27.168 51.619 41.295 32.601 51.075 10.867q27.168 1.087 47.815-9.78t34.231-23.364 21.191-24.994 7.607-15.757q0-2.173-0.543-2.717t-1.087-2.173-1.63-1.63-2.173-1.087q-1.087 1.087-2.173 1.087t-2.173 1.63-2.717 3.26-4.89 7.064q-5.434 5.434-11.954 10.867t-14.671 9.237-16.844 6.52-18.474 1.63q-21.734 1.087-39.665-10.867t-30.971-30.428-20.648-45.642-7.607-56.509q0-15.214 1.087-22.278t2.717-11.41 4.347-4.347 5.977-1.087l149.966 1.087v-1.087zM5664.711 550.035q-5.434 1.087-8.15 0.543t-4.347-1.087-2.173-2.717-0.543-3.26q0-6.52 3.26-17.387t11.41-23.908 21.191-21.734 31.515-9.78q3.26 1.087 10.867 1.63t15.757 5.434 14.127 13.041 5.977 25.538q0 5.434-2.717 12.497t-7.607 11.41-11.954 7.607-15.757 2.173l-60.856 1.087v-1.087zM5939.649 459.838q0-1.087-0.543-3.803t-1.087-4.347-1.63-2.717-3.26 0q-1.087-1.087-3.803 1.63l-5.434 5.434t-4.89 6.52-2.173 2.717q-5.434 7.607-12.497 13.584t-15.757 13.041-16.301 11.41-13.041 7.607q-2.173 0-3.803 1.63t-2.717 2.173-1.63 2.717l-0.543 2.173q0 4.347 1.087 5.434t2.173 2.717 2.173 1.087 2.173 0.543q7.607-1.087 13.041 1.087t9.237 5.977 4.89 14.127 1.087 26.624v165.18t-2.717 15.214-7.607 8.694-13.584 4.347q-5.434 1.087-8.694 1.63t-4.89 2.717-2.717 3.26-1.087 4.347 1.087 5.434 2.173 2.717 2.717 1.087 3.803-0.543q3.26 1.087 11.41 0t17.387-1.087 17.931-1.087 10.867 0q4.347-1.087 13.584 0t19.561 1.087 19.561 1.087 12.497 0q2.173 1.087 4.347 0.543t3.803-1.087 2.717-3.26 1.087-4.89q0-5.434-1.63-7.064l-3.803-3.803t-5.977-2.173-8.15-1.087q-10.867 0-16.844-4.347t-8.694-10.324-3.26-15.757-0.543-19.561v-139.099q0-21.734 2.717-36.405t7.064-21.734 9.237-10.324 8.15-2.173q2.173-1.087 3.26 0t3.26 2.173 4.89 4.347 5.977 7.607q4.347 6.52 7.607 9.237l6.52 5.434t7.064 3.803 8.15 2.173q5.434-1.087 11.41-3.26t11.41-7.607 8.694-12.497 3.26-20.104q0-9.78-3.803-18.474t-9.237-13.584-12.497-8.15-14.671-2.173q-13.041-1.087-23.908 5.977t-19.017 14.671-13.041 15.214-5.977 6.52q0 2.173-0.543 2.717t-1.087 1.63-1.63 1.63-1.087 1.63q-1.087-1.087-2.173-1.63t-1.087-2.717v-43.468zM2693.639 618.498q0-40.208-12.497-71.723t-31.515-51.619-42.925-30.428-48.902-9.237q-30.428-1.087-55.966 14.127t-42.925 39.122-27.168 54.879-9.78 61.399q0 31.515 9.78 61.399t27.168 54.879 43.468 39.665 58.682 15.757q28.255-1.087 52.706-14.671t42.382-38.578 27.711-56.509 9.78-68.463v0zM2480.644 613.064q0-34.775 5.977-60.313t15.757-44.012 22.821-27.711 28.255-10.324q22.821 1.087 38.578 17.387t24.994 41.295 13.584 51.075 4.347 46.729q0 30.428-5.977 59.226t-16.301 48.902-24.451 32.601-29.341 11.41q-16.301 1.087-30.971-13.041t-24.994-36.405-16.301-53.249-5.977-63.573v0zM515.868 387.028q4.347 0 14.127-1.087t22.278 0 25.538 1.63 23.908 2.717q4.347 0 5.977-0.543t1.087-2.717-1.63-3.803-2.173-2.717q-1.087 0-3.26-2.173t-4.89-4.347-5.434-4.89-4.89-2.717q0-2.173-0.543-1.63t-0.543 0-0.543 0-0.543-0.543l-0.543-1.087t-1.087-0.543-1.087-0.543-1.63 0q-1.087-1.087-5.434-0.543t-9.78 0-11.41-0.543h-10.324q-5.434 1.087-11.954 1.087t-12.497 1.087-11.41 1.63-8.694 2.717q-2.173 0-2.717 1.63t0 2.173 1.63 2.173 1.087 0.543q0 2.173 1.63 2.717t2.717 2.717 2.717 3.26 2.717 4.347q0-1.087 0-0.543v0t0 0.543v0q0 1.087 0 0.543t1.087 0.543 2.173 0 4.347 0v-1.087zM462.619 367.467q2.173 1.087 4.89 0t5.434-1.087 4.89-1.63 2.173-0.543q1.087-1.087 1.63-1.087t0-1.087-1.087-1.087-2.717-1.087q-1.087 1.087-3.26 0.543t-4.347 0-4.347-0.543-3.26 0q-1.087-1.087-2.173-0.543t-1.63 0.543-1.087 1.087-0.543 2.173q1.087 2.173 1.087 2.717t0.543 1.63 1.63 1.087 2.173 1.087v-2.173zM383.289 423.976l-2.173 3.26q0-1.087-0.543 0l-1.087 2.173t-1.63 1.087q-1.087 7.607-2.173 12.497t-1.63 10.867-1.087 10.867-0.543 13.584v19.017t0.543 9.237 0.543 11.954l1.087 7.607q0-1.087 0.543 0.543t1.087 1.63 1.63 1.63 2.173 0.543q4.347 2.173 9.78 1.087t11.41-0.543 11.954 0 11.41 1.63q10.867-1.087 20.104 0t16.844 0.543 13.041-1.087 7.607-4.89q2.173-1.087 2.717-6.52t1.087-10.324 0.543-11.954 1.087-13.584q1.087-14.127 1.63-22.821t0.543-15.757-1.087-10.867-2.173-7.064q-2.173-2.173-9.237-3.803t-19.017-1.087-30.428 0.543-44.555 1.087v-1.087zM468.053 467.445q-1.087 3.26-1.087 4.89v4.347t0.543 4.347 0.543 5.977q-1.087 1.087-2.173 3.803t-2.717 3.803-2.717 2.717-3.26 2.717q-1.087 2.173-1.087 3.803t0.543 4.347 0.543 4.347-1.087 3.803q-1.087-1.087-1.63-0.543t-1.087-0.543-1.63-1.087-3.26-3.26q-1.087 0-2.717 0.543t-3.803 2.173-4.89 2.717-7.064 1.087q-3.26-1.087-5.434-1.63t-4.347-2.173-3.803-2.173-2.717-2.717q-1.087 1.087-2.173 0.543t-2.173 0.543-2.173 1.087-2.173 2.173q-2.173-1.087-2.173-1.63v-2.717t0.543-4.347-0.543-5.434l-2.173-2.173t-2.717-1.087-2.717-1.63-2.173-2.717q-1.087-3.26-1.087-4.89v-4.89t1.087-4.347 1.087-4.347l-0.543-1.63t-1.087-2.173-1.087-2.173-1.63-1.63q0-2.173 1.087-1.63t3.26 0 4.347-0.543 3.26-2.173q1.087-1.087 1.087-2.717v-2.173t0.543-2.717 1.63-3.26q2.173-3.26 3.26-3.26t3.26-1.087 3.803-0.543 4.89-1.63q1.087 1.087 2.717-1.087t2.173-3.26 1.63-3.803 2.173-2.717q1.087-2.173 1.63 0t2.173 3.803 3.803 4.347 5.434 1.63q3.26 1.087 5.977 1.087t4.89 1.087 3.803 2.717 2.717 4.89q1.087 2.173 2.717 4.347t3.26 2.173 3.26 0.543 2.717 0.543l2.173 1.087-1.087 1.63t-2.173 2.173-2.173 3.803v-1.087zM1098.346 402.242q0 1.087-0.543 0t-1.087-0.543-1.63-0.543-1.087 1.087l-1.087-1.087q-4.347 1.087-8.694 1.63t-7.607 2.717-6.52 3.803-5.434 5.977q-1.087 0-2.173 2.717t-1.63 4.347-1.63 5.434-3.26 7.064q0 2.173-0.543 2.173t-0.543 1.087-0.543 1.63-0.543 1.63q-1.087 0-1.087 1.087t-0.543 1.087-0.543 1.087-1.087 0q0 2.173 0 1.63v0 0t0 0.543q-1.087-1.087-1.63-0.543t-1.63 0-1.63 0.543-1.63 0v0q1.087-2.173 1.63-2.717t0.543-2.173 0.543-2.173 0.543-2.717q1.087-1.087 1.087-3.26v-9.78q0-2.173 0.543-3.26t0.543-2.717 0.543-2.173 0.543-3.803q1.087-1.087 1.63-3.803t0-3.803-1.63-2.717-3.26-1.63q-1.087-1.087-2.717 0t-2.173 1.087-1.63 1.087l-1.087 1.087q-1.087 4.347-2.173 5.434t-2.717 3.803-2.717 3.803-3.26 4.347q-1.087 1.087-2.717 3.803t-3.26 3.803-3.803 3.26-4.347 3.26q-8.694 11.954-15.214 23.364t-11.41 24.451-6.52 24.994 0.543 27.168q1.087 8.694 3.26 16.301t5.977 13.041 9.237 12.497 13.041 15.757l11.41 19.017t8.694 16.844 5.434 16.844-0.543 17.931q-2.173 4.347-5.977 8.15t-8.694 4.347-10.867 0.543-12.497-2.173q1.087-11.954 0-23.364t-3.803-20.648-7.607-19.017-11.41-19.561q-6.52-11.954-13.584-20.648t-14.671-17.931-15.757-17.931-15.757-19.561l-1.087-1.087-1.087-2.173q0-1.087 0-0.543v0-1.63q0 1.087 0.543 0.543t0.543 0v0t0 0.543q1.087-2.173 1.63-1.63t1.087-0.543 1.087-1.087 0.543-2.173q1.087 2.173 3.26 2.173t3.803 1.087 3.26 0 2.717-1.087q3.26-3.26 4.347-5.434t0.543-5.977-1.087-5.977-0.543-4.347l0.543-1.087t0.543-0.543 0.543-0.543 1.63-1.087q1.087-1.087 2.173-0.543t1.63-0.543 1.087-0.543 1.63-0.543q0 1.087 0 0.543t-0.543-0.543-0.543-0.543 0 0.543q1.087-1.087 1.63-0.543t1.087 0 1.087-0.543 0.543-1.087q0 3.26 2.717 3.26t5.434 0.543 5.434-1.087 3.803-1.63q3.26-4.347 3.803-7.607t0.543-8.694-1.63-10.324-2.717-11.41q-1.087-3.26-2.717-7.064t-2.717-5.977-1.087-5.977 1.087-5.977q2.173-3.26 4.89-0.543t5.434 4.89 5.977 3.803 6.52-2.717q3.26-2.173 3.26-4.89t-1.63-4.89-3.803-5.977-2.173-5.977 2.173-2.717 4.347-2.717 4.347-2.717 2.173-4.89q1.087-1.087-0.543-4.89t-3.803-5.434-4.347-4.347-3.26-3.803-1.63-1.087-1.087-0.543-1.087 0-0.543-0.543q0 1.087-0.543 0.543t-0.543 0v0t0 1.63q0-2.173 0-1.63v0 0t0-0.543q0 1.087 0 0.543v-15.757t-0.543-6.52-1.63-7.607q0-2.173-1.087-5.977t-2.173-5.434-2.173-4.89-1.087-5.434 1.087-3.803 2.717-3.803 3.26-3.803 1.63-3.803q0-1.087-1.087-2.717t-2.717-1.63-2.717-1.63-2.173-1.63q-2.173-6.52-2.717-10.324t0-7.607 0-4.89-2.717-2.173h-3.26t-2.173 2.173-2.717 2.717-3.803 3.803q-1.087-2.173-2.173-2.717t-1.63-2.173-1.087-2.717-1.63-2.173q0 1.087-1.63 1.087t-2.717 1.63-2.717 2.173-1.63 1.63q-1.087 0-1.63 1.63t-1.63 1.63-1.63 1.087-1.63 1.087q-1.087 1.087-2.173 1.087t-1.63 1.087-1.63 1.087-2.173 1.087q-1.087 0-2.173 1.087t-2.173 1.63-2.717 1.63-2.717 1.087q-2.173 1.087-4.89 1.087t-4.89 1.087-4.89 1.087-3.803 2.173q-2.173-1.087-4.347 0t-4.347 1.087-4.347 1.63-4.347 1.63q-4.347 3.26-7.064 4.347t-4.89 3.803-4.89 4.89-7.064 6.52q-1.087 0-1.63 1.63t-1.087 1.63-1.087 1.63-0.543 2.717v2.173l1.087 3.26 1.087 2.173t1.087 5.434v5.434t0.543 4.347 1.63 2.173q4.347 3.26 8.15 2.717t6.52 0 5.434 0 5.977 0.543q-1.087 0-3.803 1.63t-5.977 2.173-8.15 1.63-9.237 1.087q-2.173 1.087-4.89 0t-4.89-1.087-4.347-1.63-5.434-0.543q-1.087-2.173-2.717-1.63t-2.173 0-1.63 0.543-2.173 0q-1.087 0-1.63-0.543t-1.087 0-0.543 0-1.087-0.543q-1.087-1.087-1.087 0t-0.543 0.543-1.087 0-0.543-0.543q-1.087 2.173-0.543 2.173t2.717 1.63 4.347 2.717 4.347 4.347q3.26 1.087 4.89 3.26t3.26 3.803l3.26 3.26t5.977 0.543q3.26 1.087 8.15-1.087t9.78-3.803 8.694-3.26 3.803 0.543l-1.087 1.087t-2.717 1.63-4.347 2.173-3.803 1.63q-4.347 2.173-7.064 1.63t-5.434 1.63-4.89 4.347-3.26 9.78q0 3.26 3.803 4.347t7.607-0.543 7.607-1.63 3.803 1.087q-1.087 2.173-3.26 3.803t-5.977 3.26-8.15 2.173-7.607 1.63l-1.087-1.087q-1.087 2.173-2.717 2.173t-3.26 1.63l-4.89 4.89v1.63t-0.543 2.173-0.543 2.173-1.087 0.543q-2.173 5.434-7.064 5.434t-13.041-2.173-20.104-7.607-29.341-11.954q-6.52-4.347-14.127-6.52t-14.671-3.803-14.671-0.543l-15.214 2.173-3.26 1.63t-1.63 1.63l-1.087 2.173t-0.543 3.26q-1.087 2.173 0.543 4.347t4.347 2.717l5.434 1.087t4.89-1.63q3.26 1.087 5.977 0t4.89 0 4.89 1.63 3.803 3.803q2.173 1.087 2.717 3.26t0.543 3.803-1.087 4.89-1.087 6.52q0 4.347 0.543 5.977t1.087 3.803 1.63 3.803 2.173 4.89q1.087 0 1.63 1.63t1.087 2.173 1.087 2.173 1.63 1.63q2.173 2.173 3.26 1.63t2.173-0.543 2.173-0.543 2.173 1.63l1.087 2.173 1.087 3.26q1.087 2.173 1.63 1.63t1.087 0 0.543 0 1.087 1.63q1.087 0 0.543 1.63t-0.543 2.717v2.173t2.173 0q0 2.173 1.087 1.63l2.173-1.087t2.717-2.173 2.717-0.543q0-2.173 0-1.63t0.543 0 0.543 0 0-0.543q0 1.087 0.543 1.087t1.087 1.63 1.087 1.63 1.63 1.087q0-1.087 0-0.543v0 0t0-0.543v3.803t0.543 2.173 1.63 2.717 2.173 3.26q2.173 0 3.803 0.543t3.803-1.087 3.803-1.63h2.717q1.087 2.173-1.087 4.347t-4.89 5.977-6.52 7.064-7.064 7.607q-3.26 2.173-5.434 4.89t-4.89 3.803-5.434 3.803-5.977 4.89q-3.26 4.347-5.434 7.607t-4.347 8.15-3.803 9.237-3.803 11.954q-1.087 2.173-1.63 4.89t-1.63 4.347-2.717 4.347-4.89 3.803q0-2.173 0.543-4.89t1.087-3.803 1.087-3.26 1.63-3.26q1.087-3.26 1.63-5.434t1.087-4.89 1.087-4.347 2.717-3.803q0 1.087 1.087-0.543t1.63-1.63 0.543-1.087-1.087-1.087l-364.049-1.087v2.173l0.543 1.63t1.087 1.63 1.63 1.087 2.173 3.26 1.63 3.803 1.087 4.89 0.543 4.347q1.087 3.26 2.173 4.347t1.63 3.26 1.087 3.803 0.543 5.977q-4.347-3.26-5.977-4.89t-2.173-4.347-1.087-4.347-1.63-5.977l-4.347-10.867t-3.803-9.237-3.803-7.607-5.434-7.064q-3.26-4.347-6.52-5.977t-5.434-3.803-4.89-3.803-4.89-5.977q-3.26-1.087-7.064-5.977t-7.064-7.607-4.89-5.977-0.543-3.26q1.087-2.173 2.717-1.087t3.26 1.63 3.803 1.087 3.26-1.63q1.087 0 2.173-1.63t1.087-2.717 1.087-2.717 0-2.717q1.087-1.087 0.543-0.543t0 0 0 0 0.543-0.543q-1.087 1.087 0 0t1.087-1.63 1.087-1.63 0 0q2.173-1.087 1.63-0.543t0 0 0.543 0.543 1.087 0q0 2.173 1.63 2.173t2.173 1.63 2.173 1.087 1.63 0.543q2.173-1.087 1.63-1.63t0-2.717 0-2.717 1.63-2.717q-1.087 1.087 0 0t1.087-0.543 1.087 0 0-0.543q2.173-2.173 1.63-2.173t0.543-1.63 0.543-1.63 1.63-2.173h1.63t1.63 0.543 2.173 0l2.173-0.543q2.173-2.173 2.173-2.717t1.63-2.173 1.63-2.173 2.173-2.717q0-1.087 1.087-3.803t1.63-3.803 1.63-3.803 0-4.89q0-4.347-1.087-7.064t-1.087-5.434 0.543-3.803 2.717-4.347q1.087-1.087 3.803-2.717t4.89-1.63h5.434t4.347 1.087q3.26 0 5.434 0.543t5.434-1.087 4.347-2.717 2.173-5.434q-1.087 0-1.087-1.63t-1.63-2.173-2.173-2.173-2.717-0.543q-6.52-3.26-14.671-3.26t-15.214 1.087-14.671 3.803-14.127 4.89q-18.474 8.694-29.341 13.041t-19.561 7.607-13.041 2.173-8.694-3.26q0-2.173-0.543-2.717t0-2.173 0-2.173-0.543-2.717q-1.087 1.087-2.173-0.543t-3.26-2.173-2.717-2.173-2.717-1.63v-1.087q-5.434 1.087-9.237 0t-8.15-2.173-5.977-3.803-2.717-2.717q1.087-3.26 3.803-2.173t7.607 1.63 7.607 0.543 3.803-4.347l-3.26-9.78t-4.347-4.347-5.977-1.63-7.064-0.543q-1.087-2.173-3.803-2.717t-4.347-1.63-3.26-1.63 0.543-2.717q-1.087 0 2.717 0.543t8.15 3.26 10.324 3.803 7.064 2.173q5.434-1.087 7.064-1.63t3.26-2.717 2.717-3.803 5.434-4.89q1.087-1.087 4.347-3.26t4.347-2.717 2.717-1.63-0.543-1.087q0-1.087-1.087-0.543t-0.543 0-0.543 0 0-0.543q-2.173 1.087-2.173 0.543t-1.087 0l-3.26 1.63q0-1.087-1.087-1.087t-1.63-0.543-2.173 0-2.717 0.543q-4.347 1.087-5.977 1.63t-4.347 1.63-4.347 1.087-5.977 1.087q-3.26-2.173-8.15-2.173t-8.15-1.63-6.52-2.173-2.173-2.717q1.087 1.087 4.347 0.543t5.977 0 6.52 0 7.064-1.63q2.173-2.173 2.173-3.26t1.087-3.803 0.543-5.434 0.543-7.064l1.087-1.087t0.543-1.63 0.543-1.63-1.087-1.087q1.087-2.173 0.543-3.26t-0.543-2.173-1.63-1.63-1.63-2.717q-4.347-2.173-6.52-5.434t-5.434-4.89-5.434-3.803-7.607-3.26q-1.087-2.173-3.803-2.717t-3.803-1.63-3.803-1.087-3.803-1.087q-3.26 0-4.89-1.087t-4.89-1.087-5.434-1.087-4.347 0q0-2.173-2.173-2.173t-3.26-1.63-2.717-1.63-0.543-2.173q-3.26 1.087-3.26 0t-1.63-1.087-2.173-1.087-2.717 0q0-2.173-1.087-2.173t-1.087-1.087-1.63-1.63-0.543-2.717q-2.173 1.087-2.717-0.543t-2.717-2.173-2.717-1.63-2.717 0q0-1.087-1.087 1.087t-1.087 2.717-1.087 2.717-2.173 1.087q-3.26-1.087-3.803-2.717t-2.173-2.173-2.717-2.173-3.26 0.543q-2.173-1.087-2.717 1.087t0 4.89 0 7.607-1.63 9.237q-2.173 2.173-3.26 2.717l-3.26 1.63t-2.717 1.63-1.63 3.803q1.087 1.087 2.173 3.26t3.26 3.26 3.26 3.803 2.173 2.717q-2.173 4.347-2.717 6.52t-2.173 5.434-1.63 5.434-2.173 6.52q0 3.26-1.087 7.064t-0.543 5.977 0 5.977 0.543 7.064q0 1.087 0.543 1.087t0 1.087 0 0.543-0.543 0.543q1.087-1.087 0.543-0.543t-0.543 0-0.543 0.543 0.543 0q-1.087 1.087-0.543 0t0-0.543 0 0-0.543 0.543q0-1.087-0.543-0.543t-0.543 0-1.087 0.543-1.087 0q-2.173 3.26-3.803 4.89t-4.347 4.89-3.803 5.434-2.173 5.434q2.173 2.173 3.803 4.347t4.347 2.717 3.803 2.173 2.173 1.63q-1.087 4.347-2.173 7.064t-3.26 5.977-2.173 5.434 2.173 5.434q4.347 3.26 7.064 2.173t6.52-4.347 5.977-4.89 5.434-0.543v7.607t-1.63 5.434-2.173 5.977-3.803 9.237q0 3.26-1.63 9.237t-1.63 10.324 0.543 9.237 3.803 5.977q0 2.173 3.26 2.717t5.977 1.087 5.434-0.543 1.63-2.173q2.173 0 2.173 0.543t1.087 0 1.087 0 1.087-0.543q-1.087 1.087-0.543 1.087t0 0.543 0 0-0.543 0.543q1.087-1.087 1.087-0.543t1.63 0.543 2.173 0.543 2.717 0.543q-1.087 1.087 0 1.087t1.087 1.087 0.543 0.543-0.543 1.63q1.087 1.087 0 3.803t-0.543 5.434 0.543 5.977 5.434 5.434q0 2.173 2.173 1.63t3.26 0 3.26-1.087l2.173-1.63q2.173 0 1.63 1.087t0.543 1.087 1.087 1.087 2.173 0q-1.087 1.087 0 0.543t0.543 0 0 0-0.543 0.543q1.087-1.087 0.543 0t0 0.543 0 0 0.543-0.543q-1.087 2.173-0.543 2.173t-0.543 1.087-0.543 1.087-1.63 1.087q-6.52 9.78-14.671 19.017t-15.214 17.387-15.214 17.931-12.497 19.561q-7.607 11.954-11.954 21.191t-8.15 19.017-4.347 20.104-0.543 24.451q-4.347 0-10.867 1.087t-11.41-0.543-9.237-4.347-4.347-9.237q-3.26-7.607-1.63-16.844t4.89-16.844 9.237-16.844 10.324-17.931q8.694-9.78 13.584-16.301t9.237-13.041 5.977-13.041 4.89-17.387q1.087-11.954-0.543-25.538t-6.52-25.538-11.41-24.451-16.301-22.278q-1.087-3.26-3.26-4.347t-3.26-3.26-3.26-3.26-3.26-5.434q-2.173-1.087-3.26-3.26t-2.717-3.803-2.173-3.803-2.717-4.347q0-2.173-1.087-2.173t-1.63-1.087-2.173-1.087h-1.63q-3.26 1.087-3.803 1.63t-1.63 2.717-0.543 3.803 0.543 5.977q1.087 0 1.087 1.63t1.087 2.717 0.543 2.717 0.543 1.63q0 3.26 0.543 4.347t0 3.26 0 3.26-0.543 4.347q1.087 1.087 1.087 2.717t1.087 1.63 1.087 1.63 1.087 1.63l-1.087 2.173q1.087-1.087-0.543-0.543t-1.63-0.543-1.63-0.543-0.543-0.543q-1.087 1.087-0.543 0.543t-0.543 0-0.543 0-0.543 0.543q1.087-2.173 0-2.173t-0.543-1.087-0.543-1.087 0-1.087q-2.173 0-1.63-1.087t-0.543-1.63-0.543-1.63-0.543-1.087q-1.087-5.434-2.717-8.15t-2.173-5.434-1.63-3.803-2.173-4.347q-3.26-2.173-5.434-4.89t-6.52-3.803-7.607-2.717-8.694-0.543v-1.087q-2.173 1.087-2.173 0.543t-1.087 0l-1.087 0.543-1.087 2.173q0-1.087-0.543 0t0 1.087 0.543 1.087 1.087 0q1.087 3.26 3.803 3.803t3.803 2.717 3.26 3.26 2.173 4.347q4.347 5.434 5.434 11.41t2.717 10.324 2.717 9.237 6.52 9.237q2.173 4.347 7.607 8.15t11.41 8.15 14.127 7.607 17.931 8.694q3.26-1.087 3.803 0t1.087 0.543 0-0.543 1.63-1.087q-2.173 2.173-0.543 3.803t2.173 3.803 2.173 3.803 1.63 3.803q2.173 2.173 3.26 5.434t2.173 5.434 0.543 5.434 0.543 6.52q-3.26 7.607-5.434 13.584t-5.977 11.954-7.064 10.867-8.694 11.41q-10.867 13.041-20.104 25.538t-13.584 23.364-6.52 23.364 1.087 24.451q0 8.694 6.52 13.041t14.127 7.607 19.017 2.173 21.191-4.347q2.173-2.173 2.717-1.63t1.63-0.543 1.63-0.543 2.717-0.543q-1.087 1.087-0.543 0.543t0.543 0 0.543 0 0.543 0.543q1.087-1.087 1.087 0t1.087 1.087 1.087 1.087 2.173 0q-1.087 2.173 0 1.63t1.087 0.543 1.087 1.087 1.087 1.087q3.26 0 4.347 3.26t2.717 5.977 1.63 6.52v7.064q-3.26 6.52-5.977 11.41t-7.607 9.78-8.694 9.237-9.237 11.954q1.087-1.087 0-0.543t-0.543 0.543 0 0.543 0.543 0.543q-2.173 1.087-2.717 0.543t-1.63 0l-1.087 0.543-2.173 2.173q1.087-1.087 0 0.543t-0.543 1.63 0 1.087 1.63 0q-2.173 2.173-2.173 1.63t-0.543 0.543-1.087 1.087-1.63 1.087l-0.543 1.63t0.543 2.717 1.087 3.26v3.26q-1.087 3.26-2.717 4.347t-4.347 3.26-4.347 3.26-1.63 5.434q1.087 3.26 2.173 4.89t3.26 2.173 3.26 1.63 3.26 2.173q-1.087 3.26-2.173 3.803t-4.347 3.26-4.347 4.89 0 7.607q5.434 3.26 8.694 5.977t7.064 3.26 5.434 2.717 3.803 4.347q0 3.26 0.543 3.803t-0.543 2.173-1.087 2.173-2.173 2.717l-1.087 2.173t-0.543 3.26 0.543 2.717 1.087 1.63q0 3.26 1.63 3.26t2.173 0.543 2.717 0 3.26 0.543q2.173-2.173 2.717-2.173t2.173-1.087l1.63-1.087 3.26-1.087 2.173-1.087t2.717-1.087 2.717-1.087 2.173 0l2.173-2.173 1.63-0.543t1.63 0.543 2.173 0q0 1.087 0.543 1.087t0.543 1.087 0.543 1.087-0.543 2.173q0-1.087-3.26 0.543t-5.977 2.173-5.977 2.717l-3.26 2.173q-5.434 3.26-8.15 4.347t-5.434 3.26-3.803 2.717-2.173 3.803v3.803t1.087 4.347 2.173 4.89 4.347 5.434q1.087 6.52 2.717 10.867t2.173 9.237 2.173 7.607 2.717 5.977l6.52 2.173t8.15 0 9.237-2.717 10.867-5.977q16.301-7.607 30.428-14.127t27.168-10.867 27.711-9.78 30.971-11.954l64.116-27.168q-2.173 2.173-2.717 3.26t-2.173 3.26-1.63 3.26-1.087 4.347q1.087 3.26 1.087 7.064t1.087 7.607 0.543 9.237-0.543 13.041q-1.087 5.434-1.087 8.15v5.977t1.087 4.89 2.173 5.977q4.347 3.26 8.15 5.977t10.324 2.717h12.497t14.671-1.087q4.347 1.087 21.734-0.543t40.208-1.63 51.619-1.087 54.879 0l28.255-1.087q27.168 1.087 55.966 1.087t51.619 1.087 40.208 1.63 20.648 1.63q8.694-1.087 15.214 0t13.041 0 10.324-2.717 8.15-7.064q0-2.173 1.63-4.89t1.087-5.434 0-5.977-1.63-6.52v-14.127t1.087-9.237 1.087-7.607v-9.237q-1.087 0-1.087-2.173t-1.087-3.26-1.63-3.26-2.717-2.173l64.116 24.994q16.301 7.607 30.971 12.497t27.168 10.324 27.168 10.867 30.971 15.214q5.434 2.173 10.324 4.89t9.78 2.717h8.15t6.52-3.26q0-1.087 1.63-4.89t2.173-7.607 2.717-9.237 3.26-9.78l3.26-6.52t2.717-4.89 1.087-4.347 0.543-5.977q-2.173 0-2.717-2.173t-3.803-3.26-5.977-3.26-7.064-2.173q0-2.173-3.26-3.26t-5.977-3.26-5.977-2.173-4.347-1.087q-1.087 0 0-1.087t0.543-1.087 0.543-1.087 1.087 0q1.087-2.173 1.63-1.63t1.63 0 1.63 0.543 1.63 0q1.087 2.173 3.26 2.173t2.717 1.087 2.717 1.087 2.173 2.173q2.173-1.087 2.717 0t2.173 1.087 2.173 1.087 2.717 1.087q1.087 1.087 3.26 0.543t2.717 0 1.63-1.087l1.087-1.63q2.173-2.173 2.173-2.717v-2.717t-1.087-3.26-1.087-3.26q-1.087 0-1.087-1.63t-1.087-2.173-0.543-2.717l0.543-2.173q2.173-4.347 3.803-5.434t5.434-3.26 7.064-3.26 8.694-6.52q0-3.26-0.543-6.52t-3.803-4.89-4.89-3.26-1.63-2.717q2.173-3.26 3.26-3.26t3.26-1.63 3.26-2.717 2.173-5.434l-2.173-4.347t-3.803-3.26-4.347-3.26-3.803-4.347q1.087-2.173 1.087-3.26t1.087-3.26 0.543-2.717-0.543-2.717q-2.173 1.087-2.173 0t-1.087-1.087-0.543-0.543-1.63-0.543l1.087-1.087 0.543-1.087t-0.543-1.63-1.087-2.717q-1.087 1.087-1.087 0t-1.63-0.543-1.63 0-2.173 0.543q1.087-2.173 0.543-1.63t-0.543-0.543-0.543-0.543 0.543-0.543q-5.434-5.434-9.78-10.867t-8.694-9.78-7.064-9.78-5.977-9.78q0-5.434-0.543-8.15t1.63-6.52 3.26-5.977 3.26-4.347q0 1.087 1.63 0l1.63-1.087 1.087-0.543t0-0.543l2.173-1.087 3.26-3.26q0 1.087 0.543 0.543t0 0 0.543 0 0 0.543q2.173-1.087 2.717-0.543t1.63 0.543 1.63 0.543 2.717 0.543q9.78 5.434 21.191 5.434t19.017-2.173 13.584-7.607 7.064-11.954q3.26-14.127 1.087-25.538t-7.064-23.364-14.127-23.364-19.017-26.624q-5.434-4.347-8.694-10.324t-7.064-10.867-5.977-11.954-5.434-13.584v-6.52t1.087-5.434 2.173-5.434l3.26-6.52q-1.087 0 1.087-2.717t2.717-3.803 1.63-3.803 0-2.717q1.087-1.087 0.543 0t0.543 0.543 1.63-0.543 3.803-1.087q8.694-3.26 17.387-7.607t14.671-8.15 10.867-8.15 8.15-6.52q5.434-6.52 6.52-10.324t2.717-9.237 2.173-10.324 5.977-12.497q0-1.087 2.173-3.26l3.26-3.26t3.26-2.717 4.347-2.717l1.087-1.087 0.543-1.087t-0.543-1.087 0-1.087v-1.087zM883.177 318.565q3.26-2.173 5.977-2.717t6.52-1.63 5.434-0.543 2.717 0.543q0 5.434-0.543 7.064t-2.717 2.717-3.26 0.543-4.347 1.63q-1.087 0-3.803 2.173t-4.347 2.717l-3.26 1.087t-0.543-2.717q-2.173-1.087-1.63-3.26t0.543-3.26 1.087-2.717 2.173-1.63v0zM622.366 598.937q1.087 1.087 2.717-0.543t1.63-2.173 1.087-2.717 1.087-3.26q1.087-2.173 2.173-2.717t3.803-1.087 4.347 0 4.89 0.543q0 1.087 1.087 0.543t1.087 0 1.087 0 0 0.543l1.63-1.63t1.63-2.173 1.087-2.173 2.173-1.63q-1.087-1.087 0-2.173t1.63-1.087 1.63-0.543 1.087 0.543q3.26 0 3.26 1.63t1.63 1.63 2.173 1.087 2.717 0q1.087 1.087 3.803-1.087t4.347-3.26 4.347-1.63 2.717 2.717q2.173 0 1.087 3.803t-1.63 6.52-2.717 6.52l-2.173 3.803q-1.087 2.173-0.543 2.173t-0.543 1.63l-1.087 1.63-1.087 1.087q1.087-1.087 0.543 0t0 0.543 0 0 0.543 0.543q-1.087 2.173-0.543 2.717t0.543 2.717 1.087 2.717 2.173 3.803q2.173 1.087 2.717 3.26t1.087 3.26-0.543 3.803l-1.087 2.717q-3.26 4.347-2.717 4.89t0.543 2.173 1.087 2.717 1.087 3.26q1.087 0 0.543 1.63t0 1.63-0.543 1.087 0 0q-2.173 3.26-2.717 4.89t-2.173 4.347-2.717 3.803-3.26 2.173q-1.087-1.087-3.26-1.087t-3.26-1.63-3.26-1.63h-3.26q-3.26 2.173-4.347 3.26t-3.803 3.26-4.347 2.717-4.89-0.543q0-3.26-2.173-3.26t-2.717-0.543-2.173 1.087-2.717 1.63q-4.347 3.26-6.52 4.347t-4.89 1.63-3.26-1.087-0.543-4.89q2.173-5.434 2.173-7.064t1.63-3.803 2.173-2.717 2.717-3.803q0-1.087 0.543-3.26t-0.543-2.717-0.543-2.717 2.717-2.173q5.434-4.347 7.064-5.434t2.717-3.26 0-2.173 0-1.087q-2.173 0-2.173-0.543t-1.63 0-1.63 0-2.173 0.543q1.087-1.087-0.543 0t-2.173 1.087-2.173 1.087-2.717 1.087q-2.173 1.087-2.717-1.087t-1.63-3.26 0-3.803 1.087-1.63q4.347-2.173 5.977-2.717t3.803-1.63 2.717-1.63 1.63-2.717q-1.087 0-0.543-1.087t-0.543-0.543-1.63 0.543-2.717 1.087q1.087-1.087-0.543-0.543l-1.63 0.543-2.173 1.087q-2.173 2.173-2.717 2.173h-2.173t-1.63-0.543-2.173 0.543q1.087-2.173 0-2.173t-1.087-1.63-0.543-1.63 0.543-2.173q-1.087-1.087 0-3.26t2.173-2.717 3.803-1.63 3.803 0zM513.694 610.891l7.607-17.387q1.087-3.26 1.087-4.347t1.63-3.803 1.63-4.347v-3.803q-2.173-1.087-2.173-3.26t-0.543-3.26 0-3.26 0.543-3.26q2.173-3.26 3.803-4.347t4.347-2.173 4.89-1.087 6.52-1.087q6.52 0 11.41 3.26t6.52 8.15 3.26 8.694 0.543 5.977q3.26 1.087 4.89 2.173t4.347 0.543 4.347 0.543 3.803 2.173q0 3.26 0.543 4.347t-0.543 3.803-0.543 3.803-0.543 5.434q2.173 2.173 3.803 4.89t4.347 3.803 4.347 4.89 3.803 11.41l-1.63 6.52t-2.173 4.347-2.717 3.26-3.26 5.434q1.087 0 0 1.63t-0.543 2.717-0.543 2.717 0 1.63q-1.087 2.173-0.543 2.173t0 1.087 0 1.087-0.543 1.087q1.087 0 0 1.63t-1.63 2.717l-1.63 3.26t0 1.087q0 4.347 0.543 5.977t0.543 3.803 1.087 3.803 1.087 5.977q2.173 1.087 2.717 4.347t2.173 4.347 2.717 3.803 4.347 3.803l-1.087 14.127q1.087 3.26 0 7.607t-1.087 5.977-1.087 3.803-1.087 1.087q-3.26 3.26-3.803 3.26t-2.717 1.087-3.803 0.543-5.977 0.543q-2.173-2.173-4.89-1.087t-4.347 0.543-4.347-0.543-4.89-1.087q-3.26 0-5.434-1.087t-4.89-0.543-5.434 0-8.15 1.63q-2.173-1.087-4.89 0.543t-4.347 2.173-4.347 2.173-3.803 0.543q-2.173 1.087-2.717 0.543t-2.173 0-1.63 0-2.173 0.543q0-1.087-1.087 0l-1.087 1.087-1.087 0.543t0-0.543q-2.173 1.087-2.173 0t-0.543-1.087 0-1.087-1.63-1.087q1.087-3.26 0-4.347t-1.087-3.26-0.543-3.26 0.543-4.347q0-3.26 1.087-7.607t1.63-7.607 2.173-7.064 1.63-7.064q3.26-6.52 4.347-9.78t2.717-7.064 2.173-5.977 3.803-7.607q-1.087 0-0.543-1.63t0-2.173-0.543-2.173-1.087-1.63q1.087-2.173 0.543-1.63t0-0.543-0.543-1.087 0-1.087q-3.26 0-5.434-1.63t-4.89-2.173-4.347-2.717-3.803-4.347q-1.087-5.434-0.543-9.78t3.803-9.78 5.977-9.78 5.977-9.78v0zM509.348 759.77q4.347-1.087 7.607 0.543t7.064 2.717 5.977 2.173 6.52-1.087q3.26 0 7.607-1.087t7.064-1.63 7.064-1.63 7.607 0q1.087-1.087 1.63-0.543t2.173 0 2.717 0.543 4.347 0q3.26 2.173 7.607 2.173t7.064 1.63 6.52 1.63 4.89 1.087q5.434-2.173 8.694-2.173t7.607-1.087 5.977-0.543 2.717 0.543q0 3.26 0.543 4.347t-0.543 3.26-2.717 3.803-4.89 5.977q0-1.087-1.087 0l-1.087 1.087-1.087 0.543t0-0.543q-1.087 1.087-1.087 0.543t-1.087 0.543-1.087 0.543-2.173 0.543q-3.26 0-6.52 0.543t-4.89 0-4.347-0.543-5.977-1.087q-4.347 1.087-7.064-0.543t-6.52-2.173-5.434-1.63-3.803 0q0-1.087-1.087-0.543t-0.543 0-1.087 0-1.63-0.543q-3.26 1.087-4.89 1.087t-5.434 1.63-7.064 2.173-8.694 1.63q-3.26-2.173-8.15-2.717t-8.15-2.173-6.52-1.63h-4.347q-5.434 1.087-7.607 1.63t-5.434 2.173-5.977 2.173-7.064 0.543q-1.087-2.173-3.26-1.63t-2.717-1.087-2.717-1.63-2.173-2.173q-4.347-2.173-5.434-4.89t-2.173-3.803-0.543-3.26 0.543-3.26q1.087-1.087 2.717-0.543t4.89 0 6.52 0.543 7.607 1.087q1.087 1.087 4.347 0t5.977-1.63 5.977-1.63 6.52 0v0zM571.29 799.979h-4.89t-4.89 1.63-5.977 2.173-7.064 1.63q1.087-1.087 0-0.543t-1.087 0-1.087 0 0-0.543q-4.347 1.087-6.52-0.543t-5.434-1.63-4.89-1.087-3.803 1.087q-2.173-1.087-4.89 0t-4.347 1.63l-4.89 1.63t-4.347-1.087q-3.26 1.087-3.803 0t-2.173-1.087-2.173-1.087-2.717-1.087q-1.087-3.26-2.717-4.347t-1.63-2.717-0.543-2.173 0.543-3.803l2.173-0.543t3.803 0.543 4.89 1.087 4.347 1.087q3.26-1.087 4.89-0.543t4.347-1.087 4.89-1.63 5.434-1.087q2.173 1.087 5.434 1.63t5.434 2.173 4.89 1.63h3.803q2.173-1.087 1.63-0.543t0.543 0 0.543 0 1.63-0.543q1.087 1.087 3.803 0t4.347-1.087 4.89-1.087 5.434 0q3.26-1.087 5.434 0t4.89 1.087 4.347 1.087 4.89 0q1.087 0 4.347-0.543t4.89-0.543 3.803-0.543 1.087 1.63q2.173 0 1.63 1.63t-0.543 2.173-1.63 2.717-2.717 3.26q-2.173 2.173-2.717 2.173t-2.173 1.087-2.717 1.087-3.26 1.087q-1.087-1.087-4.347-1.087t-4.347-1.087-4.347-1.63-4.347-1.63v0zM576.724 822.8q0-1.087-0.543 0l-0.543 1.087-1.63 1.087t-0.543 0q-3.26 1.087-3.26 0.543t-1.63-1.087-2.173-1.63-3.803 0q1.087-2.173-0.543-1.087t-2.717 1.63l-3.26 1.63t-2.173 0q-2.173 1.087-2.717 0t-2.173-0.543-2.173-0.543-1.63 0q0-2.173-0.543-1.63t-0.543 0-0.543 0.543 0.543 0q-3.26 1.087-3.803 1.087t-2.173 1.63-2.173 1.087-2.717 0.543q0-1.087-1.087-1.087t-1.087-1.087-1.087-1.087-1.087-1.087q-2.173-1.087-2.173-2.717t-0.543-2.173 0-2.173-0.543-2.717q1.087-1.087 1.63-0.543t2.173 0 2.173 0.543 2.717 0q0 1.087 0.543 0.543t0.543 0.543 0.543 0.543-0.543 0.543q2.173-2.173 2.173-1.63t1.087-0.543 1.63-1.087 2.717-1.087q0 1.087 2.173 1.087t2.717 1.087 2.173 1.087 2.717 1.087h2.717t2.173-1.087 2.717-1.63l3.26-1.63q0 1.087 1.63 1.087t2.173 1.087 2.173 0.543 1.63 0.543q2.173-1.087 2.717-1.087t2.173-0.543 2.173 0 1.63-0.543q-1.087 3.26-0.543 3.26t0 1.63-0.543 2.173-2.173 3.803v0zM420.237 598.937q1.087 1.087 2.717-0.543t1.63-2.173 1.087-2.717 1.087-3.26q1.087-2.173 2.173-2.717t3.26-1.087 4.347 0 5.434 0.543q0 1.087 1.087 0.543t1.087 0 1.087 0 0 0.543l1.63-1.63t1.63-2.173 1.087-2.173 1.087-1.63q0-1.087 1.087-2.173l1.087-1.087 1.63-0.543t1.63 0.543q3.26 0 3.26 1.63t1.63 1.63 1.63 1.087 3.26 0q1.087 1.087 3.803-1.087t4.347-3.26 4.347-1.63 2.717 2.717q2.173 0 1.087 3.803t-1.63 6.52-2.717 6.52l-2.173 3.803-1.087 2.173-1.087 3.26-1.087 1.087q1.087-1.087 0.543 0t0 0.543 0 0 0.543 0.543q-1.087 2.173-0.543 2.717t0.543 2.717 1.087 2.717 2.173 3.803q2.173 1.087 2.717 3.26t1.087 3.26-0.543 3.803l-1.087 2.717q-3.26 4.347-2.717 4.89t0.543 2.173 1.087 2.717 1.087 3.26q1.087 0 0.543 1.63t0 1.63-0.543 1.087 0 0q-2.173 3.26-2.717 4.89t-2.173 4.347-2.717 3.803-3.26 2.173q-1.087-1.087-3.26-1.087t-3.26-1.63-3.26-1.63h-3.26q-3.26 2.173-4.347 3.26t-3.803 3.26-4.347 2.717-4.89-0.543q-1.087-3.26-2.717-3.26t-2.173-0.543-2.173 1.087-3.803 1.63q-3.26 3.26-5.434 4.347t-4.89 1.63-3.26-1.087-0.543-4.89q2.173-5.434 2.173-7.064t1.63-3.803 2.173-2.717 2.717-3.803v-3.26t-0.543-2.717 0-2.717 2.717-2.173q5.434-4.347 7.064-5.434t2.717-3.26 0-2.173 0-1.087q-2.173 0-2.717-0.543t-1.63 0-1.63 0-1.63 0.543q0-1.087-1.087 0t-1.63 1.087-2.173 1.087-2.717 1.087q-2.173 1.087-2.717-1.087t-1.63-3.26-0.543-3.803 1.63-1.63q4.347-2.173 5.977-2.717t3.803-1.63 2.717-1.63 1.63-2.717q-1.087 0-1.087-1.087t-1.087-0.543-1.63 0.543-1.63 1.087q0-1.087-1.087-0.543t-1.63 0.543-1.087 0.543-1.63 0.543q-1.087 2.173-2.173 2.173h-2.173t-1.63-0.543-1.63 0.543q0-2.173-0.543-2.173t-1.087-1.63l-0.543-1.63v-2.173q0-1.087 0.543-3.26t2.173-2.717 3.803-1.63 4.347 0zM196.374 314.218l2.173-0.543t4.89 0.543 5.977 1.63 5.434 2.717q2.173 0 3.26 1.63t1.087 2.717v6.52q0 3.26-1.63 2.717t-3.803-1.087-4.347-2.717-4.347-2.173q-1.087-2.173-3.26-1.63t-3.803-0.543-2.173-2.717 0.543-7.064v0zM299.612 795.632q-7.607 2.173-13.584 5.434t-11.954 5.434-11.954 5.434-13.584 5.434q-5.434 4.347-9.78 5.977t-8.694 4.347-8.694 4.347-9.78 4.89q-4.347 1.087-7.607 2.717t-6.52 1.63-6.52 1.63-7.607 2.717q-3.26 2.173-5.977 2.717t-5.434 2.173-4.347 2.173-3.803 1.63v0.543t0-0.543v-1.087t0.543-1.63 0.543-1.63v-1.087q2.173-3.26 3.26-5.977t1.63-5.977 0.543-5.434-1.087-5.434q-2.173-3.26-7.607-4.89t-11.41-1.087-11.41 1.087-8.694 3.803q-1.087-2.173-1.63-1.63t-1.087 0-1.087 0.543-0.543 0q0 1.087-0.543 0t-0.543-0.543-0.543-0.543-0.543 0v-2.173t0-0.543 0-1.63q4.347-5.434 8.694-12.497t10.324-13.041l12.497-12.497t14.127-11.954q14.127-10.867 23.908-20.104t15.757-17.387 8.15-14.127 1.087-12.497q-1.087-2.173-1.63-5.977t-1.63-5.977-2.173-5.434-3.26-5.434q1.087-1.087 2.173-0.543t2.717 0 2.173 0 1.63-0.543q3.26 1.087 5.977 1.087t4.347 1.63 2.717 2.173 2.173 3.803q1.087 0 1.63 1.087t0.543 1.63v2.717q-1.087 3.26-2.717 10.324t-2.173 16.301 1.63 16.844 8.694 14.127q7.607 6.52 15.214 9.237t15.214 2.717 13.584 0.543 9.237 2.717q2.173 3.26 3.803 5.434t2.717 4.89 2.173 3.803 4.347 2.173l3.26-1.63t2.717-2.717 2.717-3.26 4.347-2.173q1.087 0 3.803 0.543t4.347 2.173 3.803 2.717 2.173 3.26q-3.26 0-7.607 2.173t-8.15 3.26-9.237 3.26-9.78 3.26v1.087zM362.641 773.898q-2.173 0-5.977 1.087t-5.977 1.63-5.434 1.63-4.347 1.087l2.173-2.717t2.717-3.26l2.173-2.173t2.717-0.543q2.173-1.087 3.26 0t3.26 1.087 3.26 0.543 3.26-1.63q-1.087 1.087-0.543 1.087t0 0.543 0 0-0.543 1.63v0zM734.297 772.811q-1.087 0-0.543-0.543t0 0 0-0.543-0.543 0q3.26 0 4.347 0.543t2.717-0.543 2.717-1.087 3.26-1.087q1.087 1.087 2.173 1.63t2.717 2.173 2.717 3.26 3.26 3.803q-3.26-2.173-5.977-2.173t-5.434-1.63-5.977-2.173-6.52-1.63h1.087zM759.291 733.689q-1.087-1.087-1.63-1.087t-1.63-1.087-1.63-0.543-1.63-0.543q-1.087 0-2.717-1.63t-2.717-1.63-2.717-0.543-3.803 0.543q-2.173-1.087-4.89 0t-4.89 1.63-4.347 2.717-4.347 3.26q-1.087 2.173-2.173 3.26t-1.63 2.717-1.63 2.173-2.173 2.717l-2.173 2.173t-2.173 1.63-2.173 2.173-2.173 1.63q-1.087 2.173-1.63 2.173t-1.087 1.087l-0.543 1.087 1.087 2.173t0.543 0.543 1.087 0 0.543-0.543l5.434 2.173-0.543 0.543t-0.543 0v0t0-0.543l-1.087 2.173-1.087 1.087-1.087 2.173q-1.087-1.087-2.717-0.543t-2.717 0-2.173 1.087-2.173 1.63q-3.26 3.26-4.89 5.977t-2.717 7.064-2.173 7.607-2.173 8.694q-1.087 3.26-2.717 7.607t-3.26 6.52-2.717 4.89-1.087 3.803q2.173 5.434 3.803 7.607t3.803 4.89 4.347 4.347 5.434 4.89q2.173 1.087 4.347 3.26t4.89 4.347 4.89 5.977 4.347 5.977q0 1.087 1.087 1.63t1.63 1.63 1.087 1.63 1.63 2.717q-3.26-2.173-6.52-2.173t-6.52-0.543-7.064-0.543-8.15-1.087q-9.78 0-17.387-0.543t-15.214 0-15.757 0-17.931 0.543q-5.434-1.087-11.41 0t-11.41 0.543-10.867 0.543-9.78 0q-4.347 1.087-8.15 0.543t-7.607 0-8.15 0-9.78 0.543l5.434-1.087q-4.347 1.087-8.694 0.543t-8.15 0-8.15 0-8.694 0.543q-4.347-1.087-9.237-1.087t-10.867-0.543-11.954-0.543-11.41-1.087q-9.78 1.087-17.387 0.543t-15.214 0-15.757 0.543-17.931 1.087q-4.347-1.087-7.607 0t-7.064 1.087-6.52 0.543-5.977 0.543l1.087-1.63t1.63-1.63 1.087-1.63 0.543-0.543q2.173-4.347 4.89-7.064t4.89-5.977 4.347-4.347 4.347-4.347q3.26-1.087 5.977-3.803t4.89-4.347 3.803-4.89 2.717-6.52q0-3.26-0.543-4.89t-2.173-4.89-3.803-5.977-3.26-9.237q-1.087-3.26-2.173-7.607t-2.173-7.607-2.717-7.064-3.803-4.89q-1.087-2.173-2.717-2.717t-2.717-1.087-2.173 0-3.26-0.543l-0.543-1.087t-0.543-0.543-0.543-0.543l-0.543-1.087q0-1.087-0.543-0.543t-0.543 0v0t0-0.543h5.434q0-2.173 0.543-1.63t0.543 0 0.543-0.543 0.543-1.087v-1.087t-0.543-1.087-1.087-1.087-1.63-1.087q-1.087-2.173-2.173-2.717t-1.63-1.63-1.63-1.63-2.173-2.717q-1.087-1.087-2.173-2.717t-2.173-2.173-2.173-2.717-2.173-2.173q-1.087-3.26-3.26-4.347t-4.347-2.717-4.89-1.63-5.977-1.087q-1.087 1.087-2.717 1.087t-3.26 1.087-2.717 1.087-2.173 2.173q-1.087-1.087-2.173-0.543t-1.63 0.543-1.087 1.087-1.63 0q0 2.173-0.543 1.63t-0.543 0.543 0 0.543-1.087 0.543q0-1.087-0.543-0.543t-0.543 0-0.543 0.543-1.63 0q0 1.087 0 0.543v0t-0.543 0.543-0.543 1.087q-7.607-3.26-14.127-4.89t-11.954-5.977-9.237-8.694-7.064-13.041q-4.347-10.867-4.89-23.908t-0.543-23.908-0.543-20.648-7.064-15.214q-5.434-4.347-10.324-4.89t-9.78-0.543-9.78 2.173-10.324 3.26q-4.347 2.173-7.064 2.717t-4.347 1.63-2.717 0.543-2.173 0.543q0-1.087-0.543-0.543t-0.543 0-0.543 0-0.543-0.543v1.087q-2.173-1.087-3.803-0.543t-3.26 0-3.26-0.543-2.717-1.087q1.087 0 2.173-2.173t2.173-3.26 2.717-3.26 3.803-3.26q4.347-5.434 8.694-7.064t9.237-3.803 9.78-3.803 9.237-7.064q5.434-3.26 10.324-10.867t9.237-13.041 7.064-9.78 2.717-2.173q1.087-1.087 1.087 2.173v5.977t1.63 6.52 5.977 3.803q3.26 1.087 5.977-1.63t4.89-4.347 4.347-3.803 3.26-1.087q1.087-1.087 1.63 0.543t1.087 2.173 1.087 3.26l0.543 2.717v5.434t-0.543 4.347-1.63 3.803-2.173 4.89q-1.087 0-2.173 3.26t-1.63 5.434-0.543 4.89 1.087 2.717q1.087 2.173 4.347 0.543t6.52-2.717 6.52-3.26 5.434 0q1.087-1.087 1.63 2.717t1.087 7.064 2.173 7.064 4.89 2.717q2.173 2.173 3.803 1.63t2.717-1.087 2.173-2.173 2.173-1.63q1.087-2.173 1.63-2.173t1.087-1.63l0.543-1.63v-1.087q1.087 2.173 2.173 3.26t2.173 3.26 2.717 1.63 3.803 0.543q2.173-1.087 3.803-2.173t2.173-3.26 1.087-3.803 0.543-3.803q0-1.087 1.087-2.173t1.63 0 1.087 1.087 1.63 2.173q0 1.087-0.543 3.26t-0.543 4.347v14.127q1.087 6.52 1.63 14.127t3.26 19.017 7.064 23.908 11.954 26.624q9.78 14.127 20.104 28.255t21.734 24.994 23.908 22.278 26.624 20.104q3.26 4.347 6.52 6.52t5.977 4.89 4.89 4.347 4.347 4.89q7.607 4.347 11.41 8.15t6.52 5.434 4.347 3.26 2.717 0.543q1.087 2.173 2.173 2.717t2.173 1.63 1.63 1.087 1.63 1.087q2.173 0 3.26 0.543t1.63-0.543 1.087-0.543 0.543-0.543q0 1.087 1.087 0t2.173-1.63 2.173-1.63 2.173-1.087q1.087-1.087 2.173-1.63t3.803-3.26 7.064-5.434 11.954-10.324q2.173 0 4.347-2.717t4.89-4.347 5.977-4.89 6.52-5.434q14.127-10.867 26.624-21.191t23.908-22.278 21.734-24.994 20.104-29.341q7.607-11.954 11.954-25.538t7.064-23.908 3.26-19.017 1.63-13.041v-15.214t-0.543-4.347-0.543-4.347l1.087-1.087t1.63-1.087h1.63t1.087 3.26l0.543 2.717t1.087 3.803 2.173 2.717 3.803 1.63q2.173 1.087 3.803 0t2.717-1.63 2.173-2.717 2.173-3.26v1.087t0.543 1.087 1.087 1.63 1.63 1.63q1.087 2.173 2.173 2.717t2.173 1.63 2.717 1.087h3.803q3.26-1.087 4.89-3.803t2.173-7.064 1.087-7.064 1.63-3.803q2.173 0 5.434 1.087t6.52 3.26 6.52 2.717 4.347 0.543q1.087-2.173 1.087-3.803t-0.543-4.89-1.63-5.434l-2.173-4.347q-2.173-1.087-3.26-3.803t-1.087-3.803v-8.694q0-3.26 0.543-4.347t1.087-2.717 1.087-2.173l1.63-1.63q1.087 1.087 2.717 2.173t4.347 3.803 5.434 4.347 5.977 1.63q4.347-1.087 5.977-3.803t1.63-6.52v-5.977t1.087-3.26q0-1.087 2.717 2.717t6.52 10.324 9.237 13.041 10.867 11.954q4.347 3.26 9.237 5.977t9.78 3.803 9.237 3.803 8.694 5.977q2.173 3.26 3.803 4.347t2.717 3.26 2.173 2.717 2.173 3.803q-1.087-1.087-2.717 0t-3.26 0.543-3.26 0-3.803-0.543v1.087q0-1.087-0.543-0.543t-0.543 0-0.543 0-0.543-0.543q-1.087 1.087-2.173 0.543t-2.717-0.543-4.347-1.63-7.064-1.63q-5.434-3.26-10.324-4.347l-9.78-2.173t-9.78 0.543-10.324 3.803q-6.52 7.607-7.607 16.301t-0.543 20.648 0 23.364-4.89 25.538q-3.26 6.52-7.064 11.954t-9.237 8.694-11.954 5.977-14.127 3.803q0 1.087-0.543 0t-0.543-0.543v0t-1.087 0.543q0-2.173-0.543-1.63t-0.543 0-0.543 0-1.63-0.543q0 1.087 0 0.543v-0.543l-1.087-1.087zM973.374 818.453q0 2.173 0 1.63t0 0.543 0.543 1.087 0.543 1.087q0-1.087-0.543 0t-1.087 0.543-0.543 0.543v0q-1.087 1.087-1.087 0t-0.543-0.543-1.087 0-1.63 0.543q-3.26-2.173-8.694-2.717t-11.41-1.087-11.41 1.087-7.607 4.89q-1.087 3.26-1.63 5.434t0 5.434 2.173 5.977 2.717 5.977l0.543 1.087t0.543 1.63 0.543 1.63l0.543 1.087q0 1.087 0 0.543t-0.543 0-0.543-0.543v0q-1.087-2.173-3.26-2.173t-4.89-1.63-5.434-2.173-4.89-2.717q-4.347-1.087-7.607-2.717t-6.52-1.63-7.064-1.63-7.064-2.717q-6.52-3.26-10.867-4.89t-8.694-4.347-8.694-4.347-9.78-5.977q-7.607-2.173-13.584-5.434t-11.41-5.434-11.954-5.434-14.127-5.434q-5.434-3.26-9.78-4.347t-8.694-3.26-8.694-3.26-8.694-3.26q2.173 0 3.803-2.173t3.803-2.717 4.347-1.63 4.347 0q2.173-1.087 3.803 1.087t2.717 3.26l2.717 2.717t3.803 0.543q2.173 1.087 3.803-1.087t2.717-3.803 2.173-4.89 3.26-4.347q3.26-3.26 9.78-3.26t13.584-1.087 15.214-2.717 14.671-10.324q6.52-4.347 8.694-13.041t2.173-16.844-1.63-16.301-2.717-9.237q0-2.173-0.543-2.173t0-1.63l0.543-1.63 2.173-2.173q1.087-1.087 2.173-2.717t2.717-2.173 3.803-1.63 6.52 0q0-1.087 1.087-0.543t2.173 0 2.717 0 2.717-0.543q-2.173 4.347-3.803 6.52t-2.173 5.434-1.63 5.977-2.173 7.064 1.63 11.41 8.694 14.671 15.757 17.387 22.821 18.474q7.607 7.607 14.671 13.041t12.497 12.497 10.324 13.041 8.15 13.584v-1.087zM486.527 375.074q-2.173 0-2.717-1.63t-1.63-1.63-1.63-0.543-1.63 0.543q-1.087-1.087-1.63-1.087h-2.717t-7.064 1.63-14.671 3.803q-11.954 4.347-19.017 7.064t-10.867 5.977-4.89 5.977-1.087 7.064q1.087 3.26 4.347 5.434t7.607 1.63 8.15-1.087 7.064-2.717q7.607-2.173 13.584-4.89t9.78-3.803 5.977-2.173 1.087 0q1.087-1.087 2.173-1.087t1.63-1.087 1.63-1.087 1.087-1.087q1.087 1.087 2.173 0.543t2.173 0 2.173 0 2.173 0.543q4.347-2.173 5.434-3.26t0-3.803-3.803-4.347-4.89-4.89v0zM715.823 297.918q-4.347-8.694-7.607-14.671t-5.977-10.324-4.89-7.064-5.434-4.89h-2.717t-3.26 0.543-2.717 1.087l-3.26 1.63q-2.173-1.087-4.89-2.717t-4.89-2.173-3.803 0-3.803 2.717l-1.63 1.63t0 1.63 0.543 2.173v2.173l-4.347 4.347t-3.26 3.803-1.63 3.803-0.543 4.347q1.087 2.173 2.717 4.89t4.89 6.52 7.607 9.78 9.78 16.844q3.26 6.52 6.52 7.607t6.52 0 5.434-2.717 2.173 0.543q1.087 1.087-0.543 2.717t-3.803 2.717-3.803 3.26-0.543 6.52 3.803 9.237l5.434 9.78t5.977 9.237l6.52 8.694q1.087 1.087 1.63 2.173t1.63 2.717 2.173 2.173l1.087 0.543q2.173 1.087 4.347 0.543t3.803-1.63 3.803-1.63 3.26-1.63q1.087 1.087 2.717 2.173t3.803 2.173 3.803 1.63 3.803-1.63q1.087-1.087 1.087-1.63t0.543-1.63 0.543-2.717v-3.803q1.087-2.173 2.717-3.26t3.26-1.63 2.717-1.63 1.087-3.26q1.087-2.173 1.087-3.26t-0.543-2.717-1.087-2.717-1.63-2.173q-7.607-9.78-10.867-16.301l-5.434-10.867t-3.803-7.064-4.89-4.89q-2.173 0-3.803 0.543t-3.803 1.087-3.803 1.63-3.803 0q-1.087 0-1.087-0.543v-1.087t-0.543-1.63l-1.63-3.26q1.087-2.173 2.717-3.26t2.173-2.173l1.087-2.173t0.543-3.26v-1.63t-0.543-1.63-1.087-1.63-1.63-2.717v0zM691.915 303.351q0 4.347-0.543 7.064t-1.63 4.347-2.173 2.173-1.087-0.543v0 0 0 0h-1.087v-1.087q-5.434-7.607-9.78-11.954l-6.52-6.52t-3.26-3.803 1.087-2.717q1.087-2.173 2.717-3.803t2.717-1.087 2.717 1.63 2.717 4.347q1.087 0 2.173-0.543t1.63-1.087l1.087-1.087t0.543-1.63-0.543-1.63-1.087-1.63l-1.087-2.173t0.543-2.173q1.087 0 3.26-0.543t3.803-1.087 3.26 0 2.717 1.63q1.087 2.173 3.26 5.434t4.347 5.977 2.717 6.52-0.543 7.064q-2.173 1.087-3.803 0.543l-3.26-1.087t-2.717-1.087-2.173 0.543v0zM716.91 350.080q1.087-1.087 1.63-3.26t0.543-4.347 0.543-3.803 1.63-1.63q1.087-1.087 3.26 0t3.803 2.173 2.717 3.26 3.26 4.347q0 2.173 1.63 4.89t2.717 5.434 1.087 4.89-2.173 3.26-3.803-1.087-3.26-3.803l-2.717-2.717t-2.173 1.087q2.173 3.26 2.173 5.434t-0.543 3.26-1.63 1.63-2.173 1.63q-3.26 1.087-5.977 0.543t-4.347-2.173-2.717-3.803l-5.434-10.867t-1.63-3.803-0.543-2.717 2.173-2.173q2.173-2.173 3.803-1.63t3.26 1.63 2.717 2.717 2.173 1.63v0zM424.584 368.554q-1.087 1.087-1.087 0.543v-0.543h-2.173t-3.26 0.543-4.89 1.087-4.89 1.087l-2.173 0.543q-1.087 0-2.173 0.543t-1.63 1.63-0.543 1.63v2.717q1.087 1.087 2.173 2.717l2.173 3.26t2.717 2.173 2.717 0.543q1.087-1.087 3.26-1.63t4.89-1.63 4.89-1.63 3.26-1.63q1.087 0 1.63-1.087t0.543-1.63-0.543-1.63-0.543-2.173q-1.087-1.087-1.63-2.173t-1.087-1.63l-1.087-1.087t-0.543 0.543v-1.087zM439.798 377.248q2.173-1.087 5.434-2.173t5.434-1.63 3.26-1.63 0-3.26-2.173-3.26-2.173-1.63-1.63-0.543h-1.63q-2.173 1.087-3.803 1.087t-2.717 0.543-2.717 0.543-3.803 1.087q-1.087 0-2.173 0.543t-1.63 1.087-0.543 1.63 1.087 3.26q1.087 1.087 1.63 2.173l1.087 2.173t2.173 1.087 4.89-1.087v0zM474.573 394.635v0 0 0zM672.354 201.2q-2.173 4.347-3.803 7.064l-3.26 5.434t-2.717 5.434-1.087 5.977q0 4.347 1.087 7.607t3.803 5.434 6.52 3.26 7.064 1.087q3.26-1.087 5.977-2.173t5.434-2.717 4.347-3.26l2.717-2.717q3.26-2.173 5.977-2.717t4.89 0 3.803 0.543 2.717-1.087q2.173-2.173 1.63-4.89t-1.63-5.977l-2.173-6.52t-1.087-5.434q1.087-2.173 2.173-4.89l2.173-5.434t1.087-5.434-2.173-3.803q-2.173-2.173-4.89-1.63t-6.52 2.173-7.607 2.717-5.977 1.087q-3.26 0-4.89-0.543t-3.26-1.63-3.26-1.63-4.89 0.543q-1.087 0-1.087 1.087t0.543 3.26 0.543 4.347-2.173 5.434v0zM407.197 241.409q9.78-1.087 17.931-10.324t10.324-19.561-4.89-17.931-27.711-5.434h-2.717t-3.803 0.543l-4.347 1.087t-3.26 1.63q-9.78 2.173-15.757 11.41t-5.434 19.017 9.78 16.301 29.885 3.26v0zM412.63 203.374l2.173 1.087q3.26 4.347 2.173 8.694t-4.89 8.15-9.237 5.434-10.867-1.63q-5.434-4.347-4.347-9.237t4.89-9.237 9.237-5.977 10.867 2.717v0zM496.307 529.387q1.087 1.087 3.26 1.087t4.347 0.543 4.347 0.543h12.497t13.041-0.543 13.041-0.543h39.665t5.977-0.543l2.717-0.543h2.173t2.173-0.543 2.173-0.543 2.717-1.087 2.717-3.803 1.63-9.237-0.543-17.387q0-8.694-0.543-19.017t-1.087-19.017-1.087-14.671-0.543-7.064q0-2.173-0.543-4.347t-1.63-3.803-1.63-2.717l-0.543-1.087-1.087-1.087t-2.717-1.63-3.803-1.087-4.347-0.543h-24.451t-14.671 1.087h-36.405t-7.064 0.543-4.347 0.543q-2.173 1.087-3.803 1.63t-2.173 1.63-1.087 2.717-1.63 3.803-1.63 9.78-1.087 16.301-0.543 16.844-1.087 11.41v32.601q1.087 2.173 1.63 3.803t1.087 2.717 2.173 2.173 2.717 1.087v0zM536.515 464.185q1.087 0 1.087-2.717v-22.278t0.543-4.347 2.717-3.26 6.52 0q4.347 0 5.977 1.63t2.717 3.803 1.087 4.347v10.867t-0.543 5.977-0.543 4.89 1.087 2.173q1.087 1.087 7.064 0.543t11.954-0.543 10.867 1.63 3.803 5.977v4.89t-1.63 2.717-5.434 1.63-11.41 0.543q-1.087 1.087-4.347 1.63t-5.977 1.087-4.89 1.63-2.173 4.347v13.584t-1.087 4.89v3.26q-1.087 2.173-2.717 3.26t-2.717 2.173-2.717 1.63-2.717 0.543q-7.607 0-8.694-5.434t0-12.497 1.63-13.041-1.63-5.977q0-3.26-5.977-2.717t-13.041 1.087-12.497-0.543-4.347-7.607q1.087-7.607 5.977-9.237t11.41-1.63 12.497 1.087 8.15 0v0zM693.002 378.334q1.087-2.173 1.087-2.717t-0.543-1.63-1.63-1.63-2.173-0.543l-2.173-0.543t-4.89-1.087-4.89-1.087-3.26-0.543h-2.173v0.543t-1.087-0.543l-1.63 1.63t-1.087 1.63-1.63 2.173q0 1.087-0.543 2.173t-0.543 1.63 0.543 1.63 1.63 1.087q1.087 1.087 3.26 1.63t4.347 1.63 4.89 1.63 3.803 1.63q1.087 0 2.717-0.543t2.717-2.173l2.173-3.26t1.087-2.717v0zM639.753 606.544l2.173-0.543t3.803-1.63l3.26-2.173t1.63-2.173q1.087-1.087 0-2.173t-2.173-1.63-2.717-0.543h-2.717q-1.087 1.087-2.717 1.63t-2.717 1.087-1.63 1.63l-0.543 1.087v1.087h-1.087q1.087 1.087 1.087 1.63t0.543 1.087 1.63 1.087 2.173 0.543v0zM348.514 379.421q1.087 2.173 1.087 3.803v2.717t0.543 2.173 1.63 2.173q2.173 1.087 3.803 0.543t3.26-1.63 3.803-2.173 3.26-1.087 2.717 1.087 3.803 2.173 4.347 1.63 3.26-0.543q1.087 0 2.173-1.087t1.63-2.173 1.63-2.717 2.173-2.717q3.26-3.26 6.52-8.15t5.977-9.237 5.434-9.78 3.803-9.78q0-3.26-1.63-5.434t-3.26-3.803-3.26-2.717-1.63-3.26q1.087-1.087 3.26 0t4.89 2.173 6.52 0 7.064-7.607q5.434-9.78 9.237-15.757t7.064-9.78 4.89-6.52 2.717-4.89q0 6.52 0.543 13.041t1.63 12.497 1.63 13.041 0.543 14.671q1.087 2.173 1.63 4.347t1.63 4.89 1.63 4.347 1.63 2.717v1.087h2.717t1.63-0.543l3.26-1.63q3.26-1.087 5.977-2.173t5.434-1.63 4.89-2.173 2.173-3.803v-1.63t-1.087-0.543h-2.173t-3.26-1.087q-1.087 0-1.63-2.717t-0.543-5.977 0.543-5.977 1.63-2.717 3.803-0.543 4.89-0.543 4.347 0.543 3.26 1.63l1.087 2.173t1.63 4.347 0 3.803-1.63 2.717q-3.26 1.087-4.347 1.63t-0.543 2.173 2.717 3.26l6.52 4.89q1.087 1.087 2.717 3.26t2.173 3.803 1.63 3.26 2.173 1.63q1.087-1.087 2.173-1.63t2.173-2.173l2.173-3.26t3.26-3.803q1.087 0 3.26-2.173l3.26-3.26t0.543-3.26-4.89-1.087v-8.694t1.087-5.434 2.173-3.26q1.087 0 3.803-0.543t5.434 0.543 4.347 1.087 1.63 1.087q1.087 0 1.63 2.717t1.087 4.347-0.543 3.26-3.26 0.543l-3.26 1.63t-0.543 2.717 2.173 3.803 4.89 5.977q2.173 0 3.26 1.63t2.717 2.717 2.717 2.173 2.173 0q1.087 0 2.717-1.63t3.803-2.173 3.803-3.26 3.803-2.717q0-1.087 1.087-1.63t1.63-2.173 0.543-2.717-3.26-2.173q-1.087 1.087-2.173 0t-1.63-1.087-1.087-0.543-0.543 0.543v-9.237t0.543-2.173 1.63-2.717q0 1.087 2.173 0t4.89-0.543 4.89 0 3.26 0.543q2.173-1.087 3.26-0.543t1.63 1.087 1.087 2.717l0.543 2.173v5.434t-0.543 2.173-1.63 0.543-2.173 1.63q0-1.087-0.543 0.543t-1.087 1.63-1.087 1.087 0.543 1.087q0 2.173 0.543 2.173t1.63 1.63 3.26 2.173 4.347 2.717q3.26 1.087 3.803 3.26t1.087 2.717l1.63 1.63t2.173 0q1.087 1.087 2.717-0.543t3.26-2.173 2.717-2.173 2.173-1.63q1.087-2.173 3.803-3.26t4.347-3.803 1.63-3.803-4.347-3.26q-1.087 0-2.173-1.087t-1.087-1.63v-8.15t0.543-2.173 1.087-1.087 0.543-1.087q1.087 0 3.26-1.087t4.89-0.543 4.89 0.543 3.26 1.087q1.087-1.087 1.63 1.63t0.543 4.89-1.087 4.89-3.26 1.63q-3.26 2.173-4.347 2.717t-0.543 1.63 2.173 1.63 2.717 2.717q2.173 1.087 3.26 2.717t1.63 2.173l1.63 1.63t2.173 1.087q1.087 1.087 2.173 1.087t1.63 1.087 1.087 1.087 1.63 1.087q1.087 0 2.173-1.087t2.173-4.89 2.173-7.064l2.173-6.52q0-8.694 1.087-17.387t2.173-16.301 1.087-16.301-1.087-18.474q-1.087-15.214-1.087-27.711t0.543-22.821 1.63-15.757 2.173-6.52q2.173 0 7.607-4.89t9.237-9.78 4.347-12.497-5.977-14.127q-4.347-5.434-10.324-5.977t-11.41 1.087-10.324 7.607-5.977 12.497q0 1.087 0 0.543t0 0.543 0 0.543 0 0.543q0-1.087-0.543-0.543t-1.087 0.543-2.717 0.543-6.52-0.543q-4.347 2.173-9.78 1.63t-11.954-0.543-12.497-0.543-9.237 1.63q-4.347-1.087-8.694-0.543t-8.15 0.543-7.064 0.543-5.434-0.543q-4.347 1.087-7.607 1.087t-5.977 0.543-5.977 0-6.52-0.543q-4.347-1.087-10.324-0.543t-11.954 0-11.41 0-9.78-0.543q-4.347 1.087-6.52 0t-3.26-0.543-1.63-0.543-0.543 0q0-1.087 0-0.543t0-1.087v-1.63l-1.087-3.26v1.087q-2.173-7.607-6.52-11.41t-9.78-5.977-10.867-0.543-8.694 3.803q-7.607 9.78-7.064 16.301t4.347 12.497 9.237 9.78 7.607 5.977q1.087-1.087 2.173 5.434t1.63 15.757 0.543 22.821-1.087 26.624v3.26t-0.543 3.26-0.543 2.717v2.717q0-2.173-1.087-3.26t-2.173-2.717-2.717-2.717-2.717-3.26v-5.977t-1.087-1.63q-2.173-3.26-4.347-2.717t-4.347 0.543-4.347 1.63-5.434 2.717q-1.087 0-2.717-1.63t-2.717-1.63-2.717-0.543-2.717 1.63q-3.26 0-5.434 3.803t-4.89 7.607-5.977 10.324-7.607 14.127q-1.087 2.173-1.63 2.717t-1.087 1.63-0.543 1.63-1.087 2.717q0 1.087 0.543 2.173t1.63 1.63 2.173 2.173 3.26 3.803q-1.087 2.173-1.63 2.717t-0.543 2.173-0.543 1.087-1.63 1.63q-1.087-1.087-3.26-1.087t-3.803-1.63-3.803-1.63h-3.26l-5.434 5.434t-3.803 7.064-5.434 10.867-10.324 15.757q-1.087 1.087-1.63 2.717t-1.087 2.173-0.543 2.717v2.173q1.087 3.26 2.173 3.803t2.717 2.173 2.717 2.173 2.173 3.803v-2.173zM656.054 158.818q0 1.087 0.543 0.543t1.087 0l1.63 1.63q2.173 2.173 2.717 6.52t-1.087 7.064-4.347 4.347-5.977 0.543q-7.607-1.087-9.237-5.977t0.543-8.15 6.52-5.977 7.607 0.543v-1.087zM634.32 306.611q-4.347 1.087-9.78 0.543t-9.78 0-8.15-0.543l-3.803-1.087q0-8.694-0.543-12.497t-0.543-7.607 0.543-4.89 0.543-3.26q1.087 0 5.434-1.087t9.78-0.543 9.78 0 5.434 0.543l1.087 5.434t1.087 10.324v10.324t-1.087 4.347v0zM604.978 191.42q0-2.173 4.347-2.173t8.694-0.543 8.15 0 4.89-0.543q0 1.087 0 0.543v0 0t0 0.543q0-1.087 0.543-0.543t0.543 0v0t1.087-0.543v3.803t-1.087 1.63v7.607t0.543 7.064 0 5.977-2.717 3.26q-1.087 2.173-3.26 1.63t-4.89 0.543-6.52 0.543-8.15 0.543q0-1.087-0.543-0.543t-0.543 0v-1.63q-1.087 1.087-1.087 0.543v0 0t0 0.543v-1.087l1.087-1.087v-1.087q1.087-4.347 0.543-9.78t-1.087-8.15l-1.087-5.434t0.543-1.63v0zM602.805 233.802q1.087 0 3.803-1.087t5.977 0 7.607 0.543 8.694 0.543v-1.087l0.543-0.543t0.543 0v0t0 0.543q1.087-1.087 1.63 0l0.543 1.087v11.954t0.543 8.694 0 6.52-1.63 4.347q-4.347-1.087-8.694 0t-9.78 0.543-7.607-1.087-3.26-2.717q0-2.173-0.543-7.064t0-8.694 0-7.607 1.63-3.803v-1.087zM557.163 191.42q1.087 1.087 0.543 0t0-0.543 0-0.543 0.543 0q-1.087-1.087 0-0.543t0.543 0 0 0-0.543-0.543q1.087 0 0.543-0.543t0 0 0 0 0.543 0.543q0-1.087 0.543-0.543t0 0 0 0.543-0.543 0q1.087 1.087 0.543 0.543t0-0.543 0-0.543 0.543 1.63q3.26-1.087 8.15-0.543t8.15 0 6.52 0 3.26 1.63q2.173 1.087 1.63 4.347t0 8.15-0.543 8.694 0 7.064q-1.087 1.087-3.803 2.173t-7.607 0.543-9.237 0-8.694-1.63q-1.087 1.087-2.173-2.173t0-7.064 1.087-9.237 1.087-9.78zM556.076 237.062q1.087 1.087 0.543 0.543t0.543-0.543 0.543-0.543 1.63-0.543q-1.087-1.087 3.26-1.087t8.15-0.543 8.694 0l4.89 0.543q2.173 1.087 1.63 1.087t0 1.087 0 1.63 1.63 3.803q-1.087 1.087-0.543 2.717t-0.543 2.717-0.543 2.717-1.63 2.717q0 3.26-0.543 4.347t0.543 2.717l1.087 1.63v2.173q-1.087 0-3.803 0.543t-7.607 0-8.694 0-8.15-1.63q-1.087 1.087-1.63-1.63t0-5.977 0.543-8.694 1.087-8.694zM553.903 276.183q2.173 0 4.89-1.087t8.15-0.543 10.324 0 10.324 0.543q0-1.087 0.543 4.347t-0.543 10.324-1.087 10.324-2.173 5.434q1.087 1.087-3.803 0.543t-9.78 0-10.324-0.543-4.347-1.087q-2.173-2.173-1.63-3.26t0-4.89 0-7.607-0.543-12.497v0zM509.348 237.062q-1.087-1.087-0.543-1.087t-0.543-0.543-0.543-0.543-0.543-1.087q1.087 1.087 0.543 0t0.543-0.543 0.543 0 0.543 0.543q-1.087-1.087-0.543-0.543t0 0 0.543 0 0-0.543q5.434 1.087 9.237 0.543t7.064 0 5.434 0 4.347 0.543q0 1.087 1.087 4.347t0.543 5.977-0.543 7.064v6.52l1.63 3.26t0 1.63-0.543 1.63q-1.087-1.087-0.543-0.543t0 0-0.543 0-1.087-0.543q1.087 1.087 0.543 0.543t0 0 0 0-0.543 0.543q-1.087-1.087-4.347-0.543t-8.694 0-8.694-0.543-5.434-2.173q1.087 0 0.543-2.173t0.543-4.89 0.543-7.607-0.543-9.237v0zM538.689 282.704q2.173 3.26 1.63 3.803t-0.543 2.717-1.087 3.26 0 3.26q-2.173 2.173-1.63 3.803t0.543 2.173 0.543 1.63-0.543 1.087q1.087 2.173-2.717 2.173h-7.607t-8.694-0.543-7.064 0.543q-3.26-2.173-2.717-3.803t0-5.977 0.543-8.15 0-10.324q1.087 1.087 0.543 0.543t0.543-0.543 0.543-0.543 1.63-0.543q-1.087-1.087 3.26-1.087t8.15-0.543 8.694 0l4.89 0.543q2.173 1.087 1.63 1.087t0 1.63 0 2.173 0.543 2.717zM507.174 191.42q1.087 1.087 0.543 0t0.543-1.087 0.543-0.543 1.63 0.543q-1.087-1.087-0.543-1.087t0-0.543 0 0-0.543-0.543q1.087 1.087 0.543 0.543t0 0 0 0 0.543 0.543q-1.087-1.087-0.543-0.543t0 0 0 0 0.543-0.543q1.087 1.087 0.543 0.543t0 0 0 0 0.543 0.543q3.26 0 8.15 0.543t8.15 0 6.52 0 3.26 1.63q1.087 1.087 1.087 4.347t0.543 7.607-0.543 8.694 0 7.607q-1.087 1.087-3.803 2.173t-7.607 0.543-9.237 0-9.78-1.63q-1.087 0-1.63-2.717t0.543-6.52 1.087-9.237v-9.78zM464.792 188.16q2.173 1.087 5.434 0.543t8.694 0.543 8.694 1.087 5.434 2.173q0-1.087 0 1.087t-1.087 4.347-0.543 6.52 0.543 8.694q1.087 2.173 0.543 2.173t0.543 1.63 0.543 1.63 0.543 2.173q-1.087-1.087-0.543-0.543t0 0 0 0-0.543-0.543q1.087 1.087 0.543 0.543t-0.543 0.543-0.543 0.543-0.543 0.543q-5.434-1.087-8.694-0.543t-7.064 0-5.977-0.543-4.347-2.173l-1.087-3.26t-0.543-5.977 0.543-7.064v-7.607q-1.087-1.087-0.543-1.087t-0.543-1.087-0.543-0.543-0.543-1.63q1.087 1.087 0.543 0t0.543-0.543 0.543-0.543 1.63 0zM463.706 235.975q1.087 1.087 0.543 0t0.543-1.087 1.087-1.087 1.087 0q-1.087-1.087-0.543-0.543t0.543 0 0.543 0-0.543-0.543q1.087 1.087 0.543 0.543t0.543 0 0.543 0 0.543 1.63q3.26-1.087 8.15-0.543t7.607-0.543 5.977 0l3.26 1.087q2.173 2.173 1.63 4.89t0 7.607-0.543 8.694 0 8.15q-1.087 0-3.803 1.63t-7.607 1.087-9.237-0.543-9.78-1.087q-1.087 0-1.63-3.26t0.543-6.52 1.087-8.694v-9.78zM463.706 276.183q1.087 1.087 4.89 0.543t9.78 0 10.324 0.543 5.434 2.173l0.543 2.173t0 4.89 0 7.607-0.543 11.41q0 2.173-3.803 2.173t-8.15 0.543-10.324 0-8.15 0.543q-3.26-1.087-2.717-5.434t0.543-10.324 1.087-10.324 1.087-6.52v0zM447.405 181.639q-4.347-1.087-7.064-1.63t-4.347-4.347-1.087-7.064 2.717-7.607q1.087 1.087 1.087 0t0.543-0.543 0.543 0 1.087 0.543q-1.087-1.087-0.543-0.543t0 0 0 0-0.543-0.543h4.347q1.087-2.173 5.434 0.543t5.434 5.977 0.543 8.15-9.237 5.977zM403.937 281.617q0-3.26 2.173-2.717t3.26 0 3.26 0.543 3.26 1.087q2.173 2.173 1.087 2.717t-1.087 1.63-1.63 1.63 0.543 2.717q-1.087-1.087 0 0.543l1.087 1.63 1.63 0.543t1.63-0.543q2.173-1.087 3.26-3.26t2.717-1.63 2.173 1.087l3.803 3.803v2.717t-3.26 3.26-6.52 6.52-9.78 12.497q1.087 1.087 0.543 0.543t0 0 0 0-0.543 0.543q-1.087-1.087-0.543-0.543t0 0.543 0 0.543-0.543-0.543q1.087 1.087 0.543 0.543t0 0 0 0 0.543 0.543l-2.173-1.087-1.63-2.173t-1.63-4.347-2.173-6.52q1.087-1.087-0.543-1.087t-2.717 1.63-3.26 1.63-3.26-1.087q-2.173-4.347-1.087-7.064t2.717-6.52 4.347-5.977 2.717-5.434zM363.728 348.993q0-3.26 2.173-4.89t3.26-3.803 3.26-2.173 3.26-1.087q2.173 1.087 2.173 2.173t0.543 3.803 0 4.347 1.63 4.89q1.087-1.087 2.717-2.173t2.717-3.26 3.26-2.173 3.26 1.087q3.26 3.26 2.717 3.26t-0.543 2.173-1.63 3.803-2.717 7.064q-2.173 1.087-3.26 3.803t-3.26 3.803-3.803 2.173-5.977-1.087l-1.63-1.087t-1.63-1.63-0.543-2.717 1.63-5.434q-1.087-3.26-2.173-1.63t-2.717 3.26-3.26 3.803-3.803 0q-1.087 1.087-1.63-1.63t1.087-4.89 2.173-5.977 2.717-3.803v0zM436.538 606.544q1.087 1.087 2.717 0t3.803-1.63 3.26-2.173 2.173-1.63q-1.087-2.173-1.087-2.717t-1.63-1.63-2.717-0.543-3.26-0.543q0 2.173-2.173 2.173t-2.717 1.087-1.63 1.63-1.087 1.63q-1.087 0-0.543 0.543t0 0 0 0-0.543-0.543q1.087 1.087 0.543 0.543t0 0 0 0 0.543 0.543q-1.087-1.087-0.543-0.543t0 0 0 0-0.543-0.543l1.087 2.173 1.087 1.087t1.63 1.087 1.63 1.087v-1.087zM634.32 368.554q2.173 2.173 2.717 1.087t1.63-1.087 0.543-1.63 1.63-2.717l-1.087-2.173-1.63-1.087t-1.63-0.543-2.173-0.543q0 1.087-2.717 1.087t-4.347 0.543-4.347 0-2.717 0.543q-3.26-1.087-3.26 0t-1.087 1.087 0 1.087 1.087 0q1.087 1.087 2.717 1.63l4.89 1.63t5.434 1.087 5.434 1.087zM615.845 528.301q3.26 4.347 8.15 4.89t13.041 1.087 16.844-0.543 20.648 0q4.347-2.173 11.41-1.63t13.041 0 12.497 0.543 9.78-1.087q2.173 1.087 2.173 0t0.543-1.63 0.543-2.173 1.087-1.63q-1.087-2.173-0.543-2.173t0-1.087 0-1.087-0.543-2.173q1.087-6.52 1.087-11.954t0.543-9.237 0-9.237 0.543-9.78q-1.087-8.694-1.087-13.584t-1.63-10.867-1.63-10.867-3.26-12.497q1.087 0 0-1.087l-1.087-1.087-0.543-1.087t-0.543 0q-26.081-1.087-44.012-1.087t-31.515-1.087-20.104 0-9.78 3.26q0 3.26-1.63 7.064t-1.087 10.867 0.543 15.757 2.173 22.821q0 6.52 0.543 13.584t0.543 11.954 1.087 10.324 2.173 6.52v0zM626.713 462.011q1.087-2.173 3.26-1.63t3.26-0.543 3.26-2.173 2.173-4.347q2.173-2.173 3.26-4.347t3.803-2.717 4.89-1.63 5.434 0q3.26-1.087 5.977-2.717t3.803-4.347 2.173-3.803l1.087-1.087q2.173 2.173 2.717 3.803t1.63 3.803l1.63 3.26t3.803 2.173q2.173 0 4.347 0.543t3.26 0.543 3.26 1.63l2.173 1.63q3.26 3.26 2.717 4.347t0.543 2.717 0.543 2.173 1.63 3.803l2.717 1.087t4.347 0.543 3.26 0 0.543 0.543q0 2.173-1.087 2.717t-1.087 2.173-1.087 2.173 0 2.717q-1.087 1.087 0 3.26t1.087 4.347 0.543 4.89-1.63 3.803q0 3.26-1.63 3.803t-2.717 1.63-2.717 1.087-1.63 3.26q-2.173 1.087-1.63 4.347t0.543 4.347 0.543 2.717-2.717 0.543l-1.63-1.087t-2.173-1.087-2.173-0.543-1.63 1.63q-2.173-1.087-3.26 0.543t-3.803 2.173-4.347 2.173-5.977 0.543q-3.26 2.173-6.52 0t-4.89-2.717-3.803-2.173-3.26 0.543q-2.173 1.087-2.717 2.717t-1.63 1.63-1.63 0.543-1.63-1.63l-0.543-2.717t0.543-4.347 0.543-4.347-1.63-2.717q-2.173-3.26-3.26-3.803t-2.717-2.717-2.173-3.803-2.717-4.89q1.087-2.173 0.543-4.89t0.543-4.347 0.543-4.347-0.543-3.803q-2.173-2.173-2.717-3.26t-2.173-2.717-1.087-1.63 0.543-1.087zM620.192 393.548q-1.087-1.087-0.543 0t0.543 0.543 1.087 0 0-0.543q4.347 2.173 7.064 3.26l8.15 3.26t9.78 3.803 10.867 4.89q2.173 0 6.52 1.63t8.15 1.087 7.607-1.63 3.803-6.52q1.087-2.173-0.543-5.977t-4.89-5.977-10.867-5.977-18.474-5.977q-10.867-4.347-18.474-5.977t-14.671-3.803-10.324-2.173-5.434-1.087q0 1.087-1.63 1.087t-1.63 1.087-0.543 1.087 1.63 2.173q2.173 0 5.434 3.26t5.434 4.89 4.89 4.89 3.803 5.434q1.087 1.087 0.543 1.087t0.543 0.543l1.087 0.543 1.087 1.087zM664.747 372.901q2.173-1.087 1.63-2.717l-0.543-1.63-1.63-1.087t-1.63 0q-3.26-2.173-4.347-1.63t-2.717-0.543-2.717-0.543-4.347-1.63q0 1.087-1.087 0.543t-1.63 0.543-2.173 1.63-1.63 3.803q-2.173 1.087-0.543 2.717t3.26 1.63 5.434 1.63 4.89 1.63q4.347 1.087 5.434 0.543t2.173-0.543 1.087-1.63 2.173-1.63z"></path>
</svg>
